<svg width="1037" height="568" viewBox="0 0 1037 568" fill="none" xmlns="http://www.w3.org/2000/svg">
<path d="M422.6 519.4H426.248V547.72C426.248 549.48 426.968 550.36 428.408 550.36C429.336 550.36 430.248 550.04 431.144 549.4L432.584 551.992C430.824 553.112 429.16 553.672 427.592 553.672C426.024 553.672 424.792 553.24 423.896 552.376C423.032 551.512 422.6 549.96 422.6 547.72V519.4ZM438.137 545.512C438.857 544.696 439.353 544.016 439.625 543.472C439.913 542.928 440.057 542.344 440.057 541.72C440.057 541.08 439.801 540.544 439.289 540.112C438.793 539.664 438.049 539.44 437.057 539.44C436.513 539.44 435.985 539.512 435.473 539.656C434.737 539.88 434.225 540.112 433.937 540.352L433.169 538.864C434.321 538.112 435.657 537.736 437.177 537.736C438.697 537.736 439.873 538.12 440.705 538.888C441.553 539.656 441.977 540.616 441.977 541.768C441.977 543.16 441.217 544.736 439.697 546.496L435.473 551.272H442.121V553H432.857V551.488L438.137 545.512Z" fill="black"/>
<circle cx="692" cy="263.542" r="40" fill="white" stroke="black" stroke-width="6"/>
<circle cx="432" cy="416.542" r="40" fill="white" stroke="black" stroke-width="6"/>
<circle cx="608" cy="417.542" r="40" fill="white" stroke="black" stroke-width="6"/>
<circle cx="669" cy="351.542" r="40" fill="white" stroke="black" stroke-width="6"/>
<circle cx="366" cy="357.542" r="40" fill="white" stroke="black" stroke-width="6"/>
<circle cx="366" cy="179.542" r="40" fill="white" stroke="black" stroke-width="6"/>
<circle cx="432" cy="116.542" r="40" fill="white" stroke="black" stroke-width="6"/>
<circle cx="674" cy="175.542" r="40" fill="white" stroke="black" stroke-width="6"/>
<circle cx="605" cy="114.542" r="40" fill="white" stroke="black" stroke-width="6"/>
<circle cx="518" cy="433.542" r="40" fill="white" stroke="black" stroke-width="6"/>
<circle cx="352" cy="270.542" r="40" fill="white" stroke="black" stroke-width="6"/>
<circle cx="518" cy="93.542" r="40" fill="white" stroke="black" stroke-width="6"/>
<mask id="path-14-inside-1_12_3" fill="white">
<path d="M432 510C432 498.596 427.47 487.658 419.406 479.594C411.342 471.53 400.404 467 389 467C377.596 467 366.658 471.53 358.594 479.594C350.53 487.658 346 498.596 346 510L389 510H432Z"/>
</mask>
<path d="M432 510C432 498.596 427.47 487.658 419.406 479.594C411.342 471.53 400.404 467 389 467C377.596 467 366.658 471.53 358.594 479.594C350.53 487.658 346 498.596 346 510L389 510H432Z" fill="white" stroke="black" stroke-width="12" mask="url(#path-14-inside-1_12_3)"/>
<mask id="path-15-inside-2_12_3" fill="white">
<path d="M518 510C518 498.596 513.47 487.658 505.406 479.594C497.342 471.53 486.404 467 475 467C463.596 467 452.658 471.53 444.594 479.594C436.53 487.658 432 498.596 432 510L475 510H518Z"/>
</mask>
<path d="M518 510C518 498.596 513.47 487.658 505.406 479.594C497.342 471.53 486.404 467 475 467C463.596 467 452.658 471.53 444.594 479.594C436.53 487.658 432 498.596 432 510L475 510H518Z" fill="white" stroke="black" stroke-width="12" mask="url(#path-15-inside-2_12_3)"/>
<mask id="path-16-inside-3_12_3" fill="white">
<path d="M605 510C605 498.596 600.47 487.658 592.406 479.594C584.342 471.53 573.404 467 562 467C550.596 467 539.658 471.53 531.594 479.594C523.53 487.658 519 498.596 519 510L562 510H605Z"/>
</mask>
<path d="M605 510C605 498.596 600.47 487.658 592.406 479.594C584.342 471.53 573.404 467 562 467C550.596 467 539.658 471.53 531.594 479.594C523.53 487.658 519 498.596 519 510L562 510H605Z" fill="white" stroke="black" stroke-width="12" mask="url(#path-16-inside-3_12_3)"/>
<mask id="path-17-inside-4_12_3" fill="white">
<path d="M691 510C691 498.596 686.47 487.658 678.406 479.594C670.342 471.53 659.404 467 648 467C636.596 467 625.658 471.53 617.594 479.594C609.53 487.658 605 498.596 605 510L648 510H691Z"/>
</mask>
<path d="M691 510C691 498.596 686.47 487.658 678.406 479.594C670.342 471.53 659.404 467 648 467C636.596 467 625.658 471.53 617.594 479.594C609.53 487.658 605 498.596 605 510L648 510H691Z" fill="white" stroke="black" stroke-width="12" mask="url(#path-17-inside-4_12_3)"/>
<mask id="path-18-inside-5_12_3" fill="white">
<path d="M778 510C778 498.596 773.47 487.658 765.406 479.594C757.342 471.53 746.404 467 735 467C723.596 467 712.658 471.53 704.594 479.594C696.53 487.658 692 498.596 692 510L735 510H778Z"/>
</mask>
<path d="M778 510C778 498.596 773.47 487.658 765.406 479.594C757.342 471.53 746.404 467 735 467C723.596 467 712.658 471.53 704.594 479.594C696.53 487.658 692 498.596 692 510L735 510H778Z" fill="white" stroke="black" stroke-width="12" mask="url(#path-18-inside-5_12_3)"/>
<mask id="path-19-inside-6_12_3" fill="white">
<path d="M864 510C864 498.596 859.47 487.658 851.406 479.594C843.342 471.53 832.404 467 821 467C809.596 467 798.658 471.53 790.594 479.594C782.53 487.658 778 498.596 778 510L821 510H864Z"/>
</mask>
<path d="M864 510C864 498.596 859.47 487.658 851.406 479.594C843.342 471.53 832.404 467 821 467C809.596 467 798.658 471.53 790.594 479.594C782.53 487.658 778 498.596 778 510L821 510H864Z" fill="white" stroke="black" stroke-width="12" mask="url(#path-19-inside-6_12_3)"/>
<mask id="path-20-inside-7_12_3" fill="white">
<path d="M951 510C951 498.596 946.47 487.658 938.406 479.594C930.342 471.53 919.404 467 908 467C896.596 467 885.658 471.53 877.594 479.594C869.53 487.658 865 498.596 865 510L908 510H951Z"/>
</mask>
<path d="M951 510C951 498.596 946.47 487.658 938.406 479.594C930.342 471.53 919.404 467 908 467C896.596 467 885.658 471.53 877.594 479.594C869.53 487.658 865 498.596 865 510L908 510H951Z" fill="white" stroke="black" stroke-width="12" mask="url(#path-20-inside-7_12_3)"/>
<mask id="path-21-inside-8_12_3" fill="white">
<path d="M1037 510C1037 498.596 1032.47 487.658 1024.41 479.594C1016.34 471.53 1005.4 467 994 467C982.596 467 971.658 471.53 963.594 479.594C955.53 487.658 951 498.596 951 510L994 510H1037Z"/>
</mask>
<path d="M1037 510C1037 498.596 1032.47 487.658 1024.41 479.594C1016.34 471.53 1005.4 467 994 467C982.596 467 971.658 471.53 963.594 479.594C955.53 487.658 951 498.596 951 510L994 510H1037Z" fill="white" stroke="black" stroke-width="12" mask="url(#path-21-inside-8_12_3)"/>
<mask id="path-22-inside-9_12_3" fill="white">
<path d="M86 510C86 498.596 81.4697 487.658 73.4056 479.594C65.3415 471.53 54.4043 467 43 467C31.5957 467 20.6585 471.53 12.5944 479.594C4.53035 487.658 1.722e-06 498.596 0 510L43 510H86Z"/>
</mask>
<path d="M86 510C86 498.596 81.4697 487.658 73.4056 479.594C65.3415 471.53 54.4043 467 43 467C31.5957 467 20.6585 471.53 12.5944 479.594C4.53035 487.658 1.722e-06 498.596 0 510L43 510H86Z" fill="white" stroke="black" stroke-width="12" mask="url(#path-22-inside-9_12_3)"/>
<mask id="path-23-inside-10_12_3" fill="white">
<path d="M172 510C172 498.596 167.47 487.658 159.406 479.594C151.342 471.53 140.404 467 129 467C117.596 467 106.658 471.53 98.5944 479.594C90.5303 487.658 86 498.596 86 510L129 510H172Z"/>
</mask>
<path d="M172 510C172 498.596 167.47 487.658 159.406 479.594C151.342 471.53 140.404 467 129 467C117.596 467 106.658 471.53 98.5944 479.594C90.5303 487.658 86 498.596 86 510L129 510H172Z" fill="white" stroke="black" stroke-width="12" mask="url(#path-23-inside-10_12_3)"/>
<mask id="path-24-inside-11_12_3" fill="white">
<path d="M259 510C259 498.596 254.47 487.658 246.406 479.594C238.342 471.53 227.404 467 216 467C204.596 467 193.658 471.53 185.594 479.594C177.53 487.658 173 498.596 173 510L216 510H259Z"/>
</mask>
<path d="M259 510C259 498.596 254.47 487.658 246.406 479.594C238.342 471.53 227.404 467 216 467C204.596 467 193.658 471.53 185.594 479.594C177.53 487.658 173 498.596 173 510L216 510H259Z" fill="white" stroke="black" stroke-width="12" mask="url(#path-24-inside-11_12_3)"/>
<mask id="path-25-inside-12_12_3" fill="white">
<path d="M345 510C345 498.596 340.47 487.658 332.406 479.594C324.342 471.53 313.404 467 302 467C290.596 467 279.658 471.53 271.594 479.594C263.53 487.658 259 498.596 259 510L302 510H345Z"/>
</mask>
<path d="M345 510C345 498.596 340.47 487.658 332.406 479.594C324.342 471.53 313.404 467 302 467C290.596 467 279.658 471.53 271.594 479.594C263.53 487.658 259 498.596 259 510L302 510H345Z" fill="white" stroke="black" stroke-width="12" mask="url(#path-25-inside-12_12_3)"/>
<path d="M688.97 265.542C688.97 358.647 614.261 434.072 522.167 434.072C430.072 434.072 355.363 358.647 355.363 265.542C355.363 172.437 430.072 97.0122 522.167 97.0122C614.261 97.0122 688.97 172.437 688.97 265.542Z" fill="white" stroke="black" stroke-width="6"/>
<path d="M374.558 345.679C389.497 371.804 410.987 393.663 436.897 409.084C462.807 424.506 492.238 432.954 522.268 433.587" stroke="#FF0000" stroke-width="6"/>
<path d="M415.249 325.041C441.542 358.544 479.46 381.117 521.521 388.307" stroke="black"/>
<line x1="525.551" y1="265.993" x2="521.999" y2="437.062" stroke="#FF0000" stroke-width="6"/>
<path d="M536.909 367V332.091H542.091V337.364H542.455C543.091 335.636 544.242 334.235 545.909 333.159C547.576 332.083 549.455 331.545 551.545 331.545C551.939 331.545 552.432 331.553 553.023 331.568C553.614 331.583 554.061 331.606 554.364 331.636V337.091C554.182 337.045 553.765 336.977 553.114 336.886C552.477 336.78 551.803 336.727 551.091 336.727C549.394 336.727 547.879 337.083 546.545 337.795C545.227 338.492 544.182 339.462 543.409 340.705C542.652 341.932 542.273 343.333 542.273 344.909V367H536.909ZM567.727 340.818V367H564.557V344.142H564.403L558.011 348.386V345.165L564.557 340.818H567.727Z" fill="black"/>
<path d="M480.341 337.114V340.864H463.705V337.114H480.341ZM482.795 336.705V340.864C482.795 344.432 482.352 347.369 481.466 349.676C480.58 351.983 479.33 353.693 477.716 354.807C476.102 355.92 474.205 356.477 472.023 356.477C469.841 356.477 467.932 355.92 466.295 354.807C464.659 353.693 463.386 351.983 462.477 349.676C461.568 347.369 461.114 344.432 461.114 340.864V336.705C461.114 333.159 461.563 330.256 462.46 327.994C463.358 325.733 464.619 324.062 466.244 322.983C467.869 321.903 469.773 321.364 471.955 321.364C474.159 321.364 476.074 321.903 477.699 322.983C479.324 324.062 480.58 325.733 481.466 327.994C482.352 330.256 482.795 333.159 482.795 336.705ZM478.705 341.614V335.955C478.705 333.614 478.42 331.625 477.852 329.989C477.284 328.352 476.494 327.108 475.483 326.256C474.472 325.403 473.295 324.977 471.955 324.977C469.977 324.977 468.347 325.932 467.062 327.841C465.778 329.739 465.136 332.443 465.136 335.955V341.614C465.136 345.125 465.79 347.881 467.097 349.881C468.403 351.869 470.045 352.864 472.023 352.864C473.364 352.864 474.534 352.415 475.534 351.517C476.534 350.619 477.313 349.33 477.869 347.648C478.426 345.966 478.705 343.955 478.705 341.614ZM492.865 338.545V356H490.751V340.761H490.649L486.388 343.591V341.443L490.751 338.545H492.865Z" fill="black"/>
<line x1="522.792" y1="264.813" x2="372.241" y2="347.438" stroke="black"/>
<line x1="415.65" y1="333.008" x2="415.5" y2="324.008" stroke="black"/>
<line x1="415.181" y1="324.534" x2="423.181" y2="327.634" stroke="black"/>
<line y1="507" x2="1037" y2="507" stroke="black" stroke-width="6"/>
<path d="M439.6 371.4H443.248V399.72C443.248 401.48 443.968 402.36 445.408 402.36C446.336 402.36 447.248 402.04 448.144 401.4L449.584 403.992C447.824 405.112 446.16 405.672 444.592 405.672C443.024 405.672 441.792 405.24 440.896 404.376C440.032 403.512 439.6 401.96 439.6 399.72V371.4ZM451.297 405V403.272H454.393L454.369 390.12H456.289V403.272H458.977V405H451.297ZM451.081 393L450.649 391.32L454.369 390.12V392.04L451.081 393Z" fill="black"/>
<line x1="519" y1="507" x2="332" y2="507" stroke="#00A3FF" stroke-width="6"/>
</svg>
