<svg width="794" height="560" viewBox="0 0 794 560" fill="none" xmlns="http://www.w3.org/2000/svg">
<g clip-path="url(#clip0_1_676)">
<path fill-rule="evenodd" clip-rule="evenodd" d="M0.000274658 0H793.598V559.359H0.000274658V0Z" fill="white"/>
<path fill-rule="evenodd" clip-rule="evenodd" d="M228.162 362.246C228.162 357.537 220.528 353.719 211.11 353.719C201.692 353.719 194.058 357.537 194.058 362.246C194.058 366.954 201.692 370.772 211.11 370.772C220.528 370.772 228.162 366.954 228.162 362.246Z" stroke="black" stroke-width="1.92" stroke-linecap="square" stroke-linejoin="bevel"/>
<path d="M245.214 533.266H526.578V556.479" stroke="black" stroke-width="1.92" stroke-linecap="square" stroke-linejoin="bevel"/>
<path d="M66.1659 556.479V533.266H177.006" stroke="black" stroke-width="1.92" stroke-linecap="square" stroke-linejoin="bevel"/>
<path d="M188.783 400.539C181.569 403.666 177.006 408.281 177.006 413.429C177.006 422.847 192.275 430.482 211.11 430.482C229.946 430.482 245.215 422.847 245.215 413.429C245.215 411.439 244.532 409.527 243.278 407.751" stroke="black" stroke-width="1.92" stroke-linecap="square" stroke-linejoin="bevel"/>
<path fill-rule="evenodd" clip-rule="evenodd" d="M206.847 76.0091V362.246H215.373V76.0091H206.847Z" fill="#DCDCDC"/>
<path fill-rule="evenodd" clip-rule="evenodd" d="M304.898 533.266V89.9073H287.845V533.266H304.898Z" fill="#DCDCDC"/>
<path fill-rule="evenodd" clip-rule="evenodd" d="M705.624 98.4337V81.3813H296.371V98.4337H705.624Z" fill="#808080"/>
<path fill-rule="evenodd" clip-rule="evenodd" d="M253.741 81.3813V98.4337H296.371V81.3813H253.741Z" fill="#808080"/>
<path d="M177.006 533.266C177.006 542.684 192.275 550.318 211.11 550.318C229.946 550.318 245.215 542.684 245.215 533.266" stroke="black" stroke-width="1.92" stroke-linecap="square" stroke-linejoin="bevel"/>
<path d="M194.052 461.492C183.861 464.441 177.006 469.951 177.006 476.261C177.006 485.679 192.275 493.314 211.11 493.314C229.946 493.314 245.215 485.679 245.215 476.261C245.215 469.95 238.358 464.44 228.167 461.492" stroke="black" stroke-width="1.92" stroke-linecap="square" stroke-linejoin="bevel"/>
<path d="M177.006 533.266V476.261" stroke="black" stroke-width="1.92" stroke-linecap="square" stroke-linejoin="bevel"/>
<path d="M245.214 533.266V476.261" stroke="black" stroke-width="1.92" stroke-linecap="square" stroke-linejoin="bevel"/>
<path d="M194.058 476.261C194.058 480.97 201.692 484.787 211.11 484.787C220.528 484.787 228.162 480.97 228.162 476.261" stroke="black" stroke-width="1.92" stroke-linecap="square" stroke-linejoin="bevel"/>
<path d="M194.058 476.261V362.246" stroke="black" stroke-width="1.92" stroke-linecap="square" stroke-linejoin="bevel"/>
<path d="M228.162 476.261V362.246" stroke="black" stroke-width="1.92" stroke-linecap="square" stroke-linejoin="bevel"/>
<path d="M177.006 476.261C177.006 485.679 192.275 493.314 211.11 493.314C229.946 493.314 245.215 485.679 245.215 476.261" stroke="black" stroke-width="1.92" stroke-linecap="square" stroke-linejoin="bevel"/>
<path d="M66.1659 537.16L70.0587 533.266" stroke="black" stroke-width="1.92" stroke-linecap="square" stroke-linejoin="bevel"/>
<path d="M66.1659 552.472L85.3722 533.266" stroke="black" stroke-width="1.92" stroke-linecap="square" stroke-linejoin="bevel"/>
<path d="M77.4731 556.479L100.686 533.266" stroke="black" stroke-width="1.92" stroke-linecap="square" stroke-linejoin="bevel"/>
<path d="M92.7866 556.479L115.999 533.266" stroke="black" stroke-width="1.92" stroke-linecap="square" stroke-linejoin="bevel"/>
<path d="M108.1 556.479L131.312 533.266" stroke="black" stroke-width="1.92" stroke-linecap="square" stroke-linejoin="bevel"/>
<path d="M123.413 556.479L146.626 533.266" stroke="black" stroke-width="1.92" stroke-linecap="square" stroke-linejoin="bevel"/>
<path d="M138.727 556.479L161.939 533.266" stroke="black" stroke-width="1.92" stroke-linecap="square" stroke-linejoin="bevel"/>
<path d="M154.04 556.479L177.009 533.509" stroke="black" stroke-width="1.92" stroke-linecap="square" stroke-linejoin="bevel"/>
<path d="M169.353 556.479L182.948 542.885" stroke="black" stroke-width="1.92" stroke-linecap="square" stroke-linejoin="bevel"/>
<path d="M184.667 556.479L193.328 547.816" stroke="black" stroke-width="1.92" stroke-linecap="square" stroke-linejoin="bevel"/>
<path d="M199.98 556.479L206.31 550.149" stroke="black" stroke-width="1.92" stroke-linecap="square" stroke-linejoin="bevel"/>
<path d="M215.294 556.479L222.418 549.352" stroke="black" stroke-width="1.92" stroke-linecap="square" stroke-linejoin="bevel"/>
<path d="M230.607 556.479L253.819 533.266" stroke="black" stroke-width="1.92" stroke-linecap="square" stroke-linejoin="bevel"/>
<path d="M245.92 556.479L269.132 533.266" stroke="black" stroke-width="1.92" stroke-linecap="square" stroke-linejoin="bevel"/>
<path d="M261.234 556.479L284.446 533.266" stroke="black" stroke-width="1.92" stroke-linecap="square" stroke-linejoin="bevel"/>
<path d="M276.547 556.479L299.759 533.266" stroke="black" stroke-width="1.92" stroke-linecap="square" stroke-linejoin="bevel"/>
<path d="M291.86 556.479L315.073 533.266" stroke="black" stroke-width="1.92" stroke-linecap="square" stroke-linejoin="bevel"/>
<path d="M307.174 556.479L330.387 533.266" stroke="black" stroke-width="1.92" stroke-linecap="square" stroke-linejoin="bevel"/>
<path d="M322.486 556.479L345.699 533.266" stroke="black" stroke-width="1.92" stroke-linecap="square" stroke-linejoin="bevel"/>
<path d="M337.801 556.479L361.014 533.266" stroke="black" stroke-width="1.92" stroke-linecap="square" stroke-linejoin="bevel"/>
<path d="M353.113 556.479L376.326 533.266" stroke="black" stroke-width="1.92" stroke-linecap="square" stroke-linejoin="bevel"/>
<path d="M368.428 556.479L391.641 533.266" stroke="black" stroke-width="1.92" stroke-linecap="square" stroke-linejoin="bevel"/>
<path d="M383.74 556.479L406.953 533.266" stroke="black" stroke-width="1.92" stroke-linecap="square" stroke-linejoin="bevel"/>
<path d="M399.055 556.479L422.265 533.266" stroke="black" stroke-width="1.92" stroke-linecap="square" stroke-linejoin="bevel"/>
<path d="M414.367 556.479L437.58 533.266" stroke="black" stroke-width="1.92" stroke-linecap="square" stroke-linejoin="bevel"/>
<path d="M429.679 556.479L452.892 533.266" stroke="black" stroke-width="1.92" stroke-linecap="square" stroke-linejoin="bevel"/>
<path d="M444.994 556.479L468.207 533.266" stroke="black" stroke-width="1.92" stroke-linecap="square" stroke-linejoin="bevel"/>
<path d="M460.306 556.479L483.519 533.266" stroke="black" stroke-width="1.92" stroke-linecap="square" stroke-linejoin="bevel"/>
<path d="M475.622 556.479L498.834 533.266" stroke="black" stroke-width="1.92" stroke-linecap="square" stroke-linejoin="bevel"/>
<path d="M490.934 556.479L514.146 533.266" stroke="black" stroke-width="1.92" stroke-linecap="square" stroke-linejoin="bevel"/>
<path d="M506.249 556.479L526.578 536.149" stroke="black" stroke-width="1.92" stroke-linecap="square" stroke-linejoin="bevel"/>
<path d="M521.561 556.479L526.578 551.461" stroke="black" stroke-width="1.92" stroke-linecap="square" stroke-linejoin="bevel"/>
<path d="M296.371 163.584V172.11" stroke="black" stroke-width="1.92" stroke-linecap="square" stroke-linejoin="bevel"/>
<path d="M211.11 163.584V172.11" stroke="black" stroke-width="1.92" stroke-linecap="square" stroke-linejoin="bevel"/>
<path d="M287.845 167.847H219.636" stroke="black" stroke-width="1.92" stroke-linecap="square" stroke-linejoin="bevel"/>
<path fill-rule="evenodd" clip-rule="evenodd" d="M296.371 167.847L287.845 166.426V169.268L296.371 167.847Z" fill="black"/>
<path fill-rule="evenodd" clip-rule="evenodd" d="M219.636 166.426L211.11 167.847L219.636 169.268V166.426Z" fill="black"/>
<path d="M243.278 159.232V158.788L243.633 157.989L244.077 157.634L244.877 157.19H246.475L247.275 157.634L247.719 157.989L248.074 158.788V159.587L247.719 160.476L246.919 161.63L242.834 165.716H248.518" stroke="black" stroke-width="1.92" stroke-linecap="round" stroke-linejoin="bevel"/>
<path d="M255.839 157.19H251.753L251.398 160.831L251.753 160.476L252.997 160.032H254.24L255.395 160.476L256.194 161.275L256.638 162.43V163.318L256.194 164.472L255.395 165.272L254.24 165.716H252.997L251.753 165.272L251.398 164.916L250.954 164.117" stroke="black" stroke-width="1.92" stroke-linecap="round" stroke-linejoin="bevel"/>
<path fill-rule="evenodd" clip-rule="evenodd" d="M261.472 165.716H262.36L263.515 165.272L264.314 164.117L264.758 162.075V160.831L264.314 158.788L263.515 157.634L262.36 157.19H261.472L260.317 157.634L259.518 158.788L259.074 160.831V162.075L259.518 164.117L260.317 165.272L261.472 165.716Z" stroke="black" stroke-width="1.92" stroke-linecap="round" stroke-linejoin="bevel"/>
<path fill-rule="evenodd" clip-rule="evenodd" d="M201.4 83.0865V96.7284H253.741V83.0865H201.4Z" fill="#808080"/>
<path d="M705.624 89.9073V181.41" stroke="black" stroke-width="1.92" stroke-linecap="square" stroke-linejoin="bevel"/>
<path d="M705.624 181.41L697.397 167.158" stroke="black" stroke-width="1.92" stroke-linecap="square" stroke-linejoin="bevel"/>
<path d="M697.397 167.158H705.624" stroke="black" stroke-width="1.92" stroke-linecap="square" stroke-linejoin="bevel"/>
<path fill-rule="evenodd" clip-rule="evenodd" d="M708.943 208.73H712.319L713.919 207.842L715.515 206.244L716.405 204.645L717.115 202.158V198.25L716.405 195.764L715.515 194.165L713.919 192.566L712.319 191.678H708.943L707.346 192.566L705.746 194.165L705.036 195.764L704.149 198.25V202.158L705.036 204.645L705.746 206.244L707.346 207.842L708.943 208.73Z" stroke="black" stroke-width="1.92" stroke-linecap="round" stroke-linejoin="bevel"/>
<path d="M711.429 205.533L716.405 210.329" stroke="black" stroke-width="1.92" stroke-linecap="round" stroke-linejoin="bevel"/>
<path fill-rule="evenodd" clip-rule="evenodd" d="M220.327 54.9029H223.969L225.212 54.4587L225.567 54.1035L226.011 53.3042V52.0607L225.567 51.2613L225.212 50.8175L223.969 50.4623L225.212 50.0181L225.567 49.6629L226.011 48.7746V47.9752L225.567 47.1759L225.212 46.8207L223.969 46.3765H220.327V54.9029Z" stroke="black" stroke-width="1.92" stroke-linecap="round" stroke-linejoin="bevel"/>
<path d="M220.327 50.4623H223.969" stroke="black" stroke-width="1.92" stroke-linecap="round" stroke-linejoin="bevel"/>
<path d="M228.854 49.2188V54.9029" stroke="black" stroke-width="1.92" stroke-linecap="round" stroke-linejoin="bevel"/>
<path d="M228.854 51.6168L229.297 50.4623L230.097 49.6629L230.896 49.2188H232.14" stroke="black" stroke-width="1.92" stroke-linecap="round" stroke-linejoin="bevel"/>
<path d="M239.016 50.4623L238.217 49.6629L237.418 49.2188H236.174L235.375 49.6629L234.575 50.4623L234.132 51.6168V52.5048L234.575 53.6594L235.375 54.4587L236.174 54.9029H237.418L238.217 54.4587L239.016 53.6594" stroke="black" stroke-width="1.92" stroke-linecap="round" stroke-linejoin="bevel"/>
<path d="M239.016 49.2188V54.9029" stroke="black" stroke-width="1.92" stroke-linecap="round" stroke-linejoin="bevel"/>
<path d="M241.846 49.2188H246.286L241.846 54.9029H246.286" stroke="black" stroke-width="1.92" stroke-linecap="round" stroke-linejoin="bevel"/>
<path fill-rule="evenodd" clip-rule="evenodd" d="M250.79 54.9029H252.034L252.833 54.4587L253.632 53.6594L253.988 52.5048V51.6168L253.632 50.4623L252.833 49.6629L252.034 49.2188H250.79L249.991 49.6629L249.192 50.4623L248.748 51.6168V52.5048L249.192 53.6594L249.991 54.4587L250.79 54.9029Z" stroke="black" stroke-width="1.92" stroke-linecap="round" stroke-linejoin="bevel"/>
<path d="M225.567 67.692H220.327V59.1659H225.567" stroke="black" stroke-width="1.92" stroke-linecap="round" stroke-linejoin="bevel"/>
<path d="M220.327 63.2514H223.614" stroke="black" stroke-width="1.92" stroke-linecap="round" stroke-linejoin="bevel"/>
<path d="M228.041 67.692L232.482 62.0078" stroke="black" stroke-width="1.92" stroke-linecap="round" stroke-linejoin="bevel"/>
<path d="M228.041 62.0078L232.482 67.692" stroke="black" stroke-width="1.92" stroke-linecap="round" stroke-linejoin="bevel"/>
<path d="M236.187 59.1659V66.0933L236.542 67.2478L237.342 67.692H238.23" stroke="black" stroke-width="1.92" stroke-linecap="round" stroke-linejoin="bevel"/>
<path d="M234.943 62.0078H237.786" stroke="black" stroke-width="1.92" stroke-linecap="round" stroke-linejoin="bevel"/>
<path d="M240.628 64.4059H245.512V63.6066L245.068 62.8072L244.713 62.452L243.914 62.0078H242.67L241.871 62.452L241.072 63.2514L240.628 64.4059ZM240.628 64.4059V65.2939L241.072 66.4485L241.871 67.2478L242.67 67.692H243.914L244.713 67.2478L245.512 66.4485" stroke="black" stroke-width="1.92" stroke-linecap="round" stroke-linejoin="bevel"/>
<path d="M247.936 62.0078V67.692" stroke="black" stroke-width="1.92" stroke-linecap="round" stroke-linejoin="bevel"/>
<path d="M247.936 63.6066L249.179 62.452L249.979 62.0078H251.222L252.021 62.452L252.376 63.6066V67.692" stroke="black" stroke-width="1.92" stroke-linecap="round" stroke-linejoin="bevel"/>
<path d="M255.65 66.4485L256.094 67.2478L257.248 67.692H258.492L259.735 67.2478L260.091 66.4485V66.0933L259.735 65.2939L258.936 64.8501L256.893 64.4059L256.094 64.0507L255.65 63.2514L256.094 62.452L257.248 62.0078H258.492L259.735 62.452L260.091 63.2514" stroke="black" stroke-width="1.92" stroke-linecap="round" stroke-linejoin="bevel"/>
<path d="M262.996 67.692V62.0078" stroke="black" stroke-width="1.92" stroke-linecap="round" stroke-linejoin="bevel"/>
<path fill-rule="evenodd" clip-rule="evenodd" d="M262.996 59.9653L262.552 59.6101L262.996 59.1659L263.351 59.6101L262.996 59.9653Z" stroke="black" stroke-width="1.92" stroke-linecap="round" stroke-linejoin="bevel"/>
<path d="M265.8 59.1659V67.692" stroke="black" stroke-width="1.92" stroke-linecap="round" stroke-linejoin="bevel"/>
<path d="M265.8 63.2514L266.599 62.452L267.399 62.0078H268.642L269.441 62.452L270.241 63.2514L270.685 64.4059V65.2939L270.241 66.4485L269.441 67.2478L268.642 67.692H267.399L266.599 67.2478L265.8 66.4485" stroke="black" stroke-width="1.92" stroke-linecap="round" stroke-linejoin="bevel"/>
<path d="M273.514 67.692V59.1659" stroke="black" stroke-width="1.92" stroke-linecap="round" stroke-linejoin="bevel"/>
<path d="M276.762 64.4059H281.647V63.6066L281.203 62.8072L280.848 62.452L280.048 62.0078H278.805L278.005 62.452L277.206 63.2514L276.762 64.4059ZM276.762 64.4059V65.2939L277.206 66.4485L278.005 67.2478L278.805 67.692H280.048L280.848 67.2478L281.647 66.4485" stroke="black" stroke-width="1.92" stroke-linecap="round" stroke-linejoin="bevel"/>
<path d="M160.02 265.514V256.988" stroke="black" stroke-width="1.92" stroke-linecap="round" stroke-linejoin="bevel"/>
<path d="M160.02 261.073H165.704" stroke="black" stroke-width="1.92" stroke-linecap="round" stroke-linejoin="bevel"/>
<path d="M165.704 265.514V256.988" stroke="black" stroke-width="1.92" stroke-linecap="round" stroke-linejoin="bevel"/>
<path d="M168.952 259.829V263.915L169.396 265.07L170.195 265.514H171.35L172.238 265.07L173.393 263.915" stroke="black" stroke-width="1.92" stroke-linecap="round" stroke-linejoin="bevel"/>
<path d="M173.393 259.829V265.514" stroke="black" stroke-width="1.92" stroke-linecap="round" stroke-linejoin="bevel"/>
<path d="M176.666 264.27L177.11 265.07L178.265 265.514H179.508L180.752 265.07L181.107 264.27V263.915L180.752 263.116L179.952 262.672L177.909 262.228L177.11 261.872L176.666 261.073L177.11 260.274L178.265 259.829H179.508L180.752 260.274L181.107 261.073" stroke="black" stroke-width="1.92" stroke-linecap="round" stroke-linejoin="bevel"/>
<path d="M184.012 265.514V259.829" stroke="black" stroke-width="1.92" stroke-linecap="round" stroke-linejoin="bevel"/>
<path fill-rule="evenodd" clip-rule="evenodd" d="M184.012 257.787L183.568 257.432L184.012 256.988L184.368 257.432L184.012 257.787Z" stroke="black" stroke-width="1.92" stroke-linecap="round" stroke-linejoin="bevel"/>
<path d="M186.816 265.514V256.988" stroke="black" stroke-width="1.92" stroke-linecap="round" stroke-linejoin="bevel"/>
<path d="M190.064 265.514V256.988" stroke="black" stroke-width="1.92" stroke-linecap="round" stroke-linejoin="bevel"/>
<path fill-rule="evenodd" clip-rule="evenodd" d="M195.355 265.514H196.598L197.398 265.07L198.197 264.27L198.552 263.116V262.228L198.197 261.073L197.398 260.274L196.598 259.829H195.355L194.556 260.274L193.756 261.073L193.312 262.228V263.116L193.756 264.27L194.556 265.07L195.355 265.514Z" stroke="black" stroke-width="1.92" stroke-linecap="round" stroke-linejoin="bevel"/>
<path fill-rule="evenodd" clip-rule="evenodd" d="M304.898 89.9073C304.898 85.1985 301.08 81.3812 296.371 81.3812C291.663 81.3812 287.845 85.1985 287.845 89.9073C287.845 94.6162 291.663 98.4334 296.371 98.4334C301.08 98.4334 304.898 94.6162 304.898 89.9073Z" stroke="#00FFFF" stroke-width="1.92" stroke-linecap="square" stroke-linejoin="bevel"/>
<path fill-rule="evenodd" clip-rule="evenodd" d="M287.859 90.4001L287.847 89.7432V90.0718L287.859 90.4001Z" fill="#00FFFF" stroke="#00FFFF" stroke-width="0.319999" stroke-miterlimit="2"/>
<path fill-rule="evenodd" clip-rule="evenodd" d="M287.859 90.4001V89.4149L287.847 89.7432L287.859 90.4001Z" fill="#00FFFF" stroke="#00FFFF" stroke-width="0.319999" stroke-miterlimit="2"/>
<path fill-rule="evenodd" clip-rule="evenodd" d="M287.885 90.7278L287.859 89.4149V90.4001L287.885 90.7278Z" fill="#00FFFF" stroke="#00FFFF" stroke-width="0.319999" stroke-miterlimit="2"/>
<path fill-rule="evenodd" clip-rule="evenodd" d="M287.885 90.7278V89.0872L287.859 89.4148L287.885 90.7278Z" fill="#00FFFF" stroke="#00FFFF" stroke-width="0.319999" stroke-miterlimit="2"/>
<path fill-rule="evenodd" clip-rule="evenodd" d="M287.923 91.0542L287.885 89.0872V90.7278L287.923 91.0542Z" fill="#00FFFF" stroke="#00FFFF" stroke-width="0.319999" stroke-miterlimit="2"/>
<path fill-rule="evenodd" clip-rule="evenodd" d="M287.923 91.0542V88.7607L287.885 89.0871L287.923 91.0542Z" fill="#00FFFF" stroke="#00FFFF" stroke-width="0.319999" stroke-miterlimit="2"/>
<path fill-rule="evenodd" clip-rule="evenodd" d="M287.973 91.379L287.923 88.7607V91.0542L287.973 91.379Z" fill="#00FFFF" stroke="#00FFFF" stroke-width="0.319999" stroke-miterlimit="2"/>
<path fill-rule="evenodd" clip-rule="evenodd" d="M287.973 91.379V88.436L287.923 88.7608L287.973 91.379Z" fill="#00FFFF" stroke="#00FFFF" stroke-width="0.319999" stroke-miterlimit="2"/>
<path fill-rule="evenodd" clip-rule="evenodd" d="M288.036 91.7016L287.973 88.436V91.379L288.036 91.7016Z" fill="#00FFFF" stroke="#00FFFF" stroke-width="0.319999" stroke-miterlimit="2"/>
<path fill-rule="evenodd" clip-rule="evenodd" d="M288.036 91.7015V88.1134L287.973 88.436L288.036 91.7015Z" fill="#00FFFF" stroke="#00FFFF" stroke-width="0.319999" stroke-miterlimit="2"/>
<path fill-rule="evenodd" clip-rule="evenodd" d="M288.112 92.0215L288.036 88.1134V91.7015L288.112 92.0215Z" fill="#00FFFF" stroke="#00FFFF" stroke-width="0.319999" stroke-miterlimit="2"/>
<path fill-rule="evenodd" clip-rule="evenodd" d="M288.112 92.0215V87.7934L288.036 88.1134L288.112 92.0215Z" fill="#00FFFF" stroke="#00FFFF" stroke-width="0.319999" stroke-miterlimit="2"/>
<path fill-rule="evenodd" clip-rule="evenodd" d="M288.199 92.338L288.112 87.7934V92.0215L288.199 92.338Z" fill="#00FFFF" stroke="#00FFFF" stroke-width="0.319999" stroke-miterlimit="2"/>
<path fill-rule="evenodd" clip-rule="evenodd" d="M288.199 92.338V87.4766L288.112 87.7934L288.199 92.338Z" fill="#00FFFF" stroke="#00FFFF" stroke-width="0.319999" stroke-miterlimit="2"/>
<path fill-rule="evenodd" clip-rule="evenodd" d="M288.299 92.6513L288.199 87.4766V92.338L288.299 92.6513Z" fill="#00FFFF" stroke="#00FFFF" stroke-width="0.319999" stroke-miterlimit="2"/>
<path fill-rule="evenodd" clip-rule="evenodd" d="M288.299 92.6513V87.1636L288.199 87.4766L288.299 92.6513Z" fill="#00FFFF" stroke="#00FFFF" stroke-width="0.319999" stroke-miterlimit="2"/>
<path fill-rule="evenodd" clip-rule="evenodd" d="M288.411 92.9604L288.299 87.1636V92.6513L288.411 92.9604Z" fill="#00FFFF" stroke="#00FFFF" stroke-width="0.319999" stroke-miterlimit="2"/>
<path fill-rule="evenodd" clip-rule="evenodd" d="M288.411 92.9604V86.8545L288.299 87.1636L288.411 92.9604Z" fill="#00FFFF" stroke="#00FFFF" stroke-width="0.319999" stroke-miterlimit="2"/>
<path fill-rule="evenodd" clip-rule="evenodd" d="M288.534 93.2648L288.41 86.8545V92.9604L288.534 93.2648Z" fill="#00FFFF" stroke="#00FFFF" stroke-width="0.319999" stroke-miterlimit="2"/>
<path fill-rule="evenodd" clip-rule="evenodd" d="M288.534 93.2647V86.5499L288.41 86.8545L288.534 93.2647Z" fill="#00FFFF" stroke="#00FFFF" stroke-width="0.319999" stroke-miterlimit="2"/>
<path fill-rule="evenodd" clip-rule="evenodd" d="M288.669 93.5643L288.534 86.5499V93.2647L288.669 93.5643Z" fill="#00FFFF" stroke="#00FFFF" stroke-width="0.319999" stroke-miterlimit="2"/>
<path fill-rule="evenodd" clip-rule="evenodd" d="M288.669 93.5643V86.2504L288.534 86.5499L288.669 93.5643Z" fill="#00FFFF" stroke="#00FFFF" stroke-width="0.319999" stroke-miterlimit="2"/>
<path fill-rule="evenodd" clip-rule="evenodd" d="M288.816 93.8587L288.669 86.2504V93.5643L288.816 93.8587Z" fill="#00FFFF" stroke="#00FFFF" stroke-width="0.319999" stroke-miterlimit="2"/>
<path fill-rule="evenodd" clip-rule="evenodd" d="M288.816 93.8587V85.9563L288.669 86.2504L288.816 93.8587Z" fill="#00FFFF" stroke="#00FFFF" stroke-width="0.319999" stroke-miterlimit="2"/>
<path fill-rule="evenodd" clip-rule="evenodd" d="M288.974 94.1467L288.816 85.9563V93.8587L288.974 94.1467Z" fill="#00FFFF" stroke="#00FFFF" stroke-width="0.319999" stroke-miterlimit="2"/>
<path fill-rule="evenodd" clip-rule="evenodd" d="M288.974 94.1467V85.668L288.816 85.9563L288.974 94.1467Z" fill="#00FFFF" stroke="#00FFFF" stroke-width="0.319999" stroke-miterlimit="2"/>
<path fill-rule="evenodd" clip-rule="evenodd" d="M289.143 94.4286L288.974 85.668V94.1467L289.143 94.4286Z" fill="#00FFFF" stroke="#00FFFF" stroke-width="0.319999" stroke-miterlimit="2"/>
<path fill-rule="evenodd" clip-rule="evenodd" d="M289.143 94.4286V85.386L288.974 85.668L289.143 94.4286Z" fill="#00FFFF" stroke="#00FFFF" stroke-width="0.319999" stroke-miterlimit="2"/>
<path fill-rule="evenodd" clip-rule="evenodd" d="M289.322 94.7038L289.143 85.386V94.4286L289.322 94.7038Z" fill="#00FFFF" stroke="#00FFFF" stroke-width="0.319999" stroke-miterlimit="2"/>
<path fill-rule="evenodd" clip-rule="evenodd" d="M289.322 94.7038V85.1108L289.143 85.386L289.322 94.7038Z" fill="#00FFFF" stroke="#00FFFF" stroke-width="0.319999" stroke-miterlimit="2"/>
<path fill-rule="evenodd" clip-rule="evenodd" d="M289.513 94.9719L289.322 85.1108V94.7038L289.513 94.9719Z" fill="#00FFFF" stroke="#00FFFF" stroke-width="0.319999" stroke-miterlimit="2"/>
<path fill-rule="evenodd" clip-rule="evenodd" d="M289.513 94.9719V84.843L289.322 85.1108L289.513 94.9719Z" fill="#00FFFF" stroke="#00FFFF" stroke-width="0.319999" stroke-miterlimit="2"/>
<path fill-rule="evenodd" clip-rule="evenodd" d="M289.713 95.2324L289.513 84.843V94.9719L289.713 95.2324Z" fill="#00FFFF" stroke="#00FFFF" stroke-width="0.319999" stroke-miterlimit="2"/>
<path fill-rule="evenodd" clip-rule="evenodd" d="M289.713 95.2324V84.5822L289.513 84.843L289.713 95.2324Z" fill="#00FFFF" stroke="#00FFFF" stroke-width="0.319999" stroke-miterlimit="2"/>
<path fill-rule="evenodd" clip-rule="evenodd" d="M289.923 95.4852L289.713 84.5822V95.2324L289.923 95.4852Z" fill="#00FFFF" stroke="#00FFFF" stroke-width="0.319999" stroke-miterlimit="2"/>
<path fill-rule="evenodd" clip-rule="evenodd" d="M289.923 95.4852V84.3297L289.713 84.5822L289.923 95.4852Z" fill="#00FFFF" stroke="#00FFFF" stroke-width="0.319999" stroke-miterlimit="2"/>
<path fill-rule="evenodd" clip-rule="evenodd" d="M290.143 95.7297L289.923 84.3297V95.4852L290.143 95.7297Z" fill="#00FFFF" stroke="#00FFFF" stroke-width="0.319999" stroke-miterlimit="2"/>
<path fill-rule="evenodd" clip-rule="evenodd" d="M290.143 95.7297V84.0853L289.923 84.3297L290.143 95.7297Z" fill="#00FFFF" stroke="#00FFFF" stroke-width="0.319999" stroke-miterlimit="2"/>
<path fill-rule="evenodd" clip-rule="evenodd" d="M290.371 95.9652L290.143 84.0853V95.7297L290.371 95.9652Z" fill="#00FFFF" stroke="#00FFFF" stroke-width="0.319999" stroke-miterlimit="2"/>
<path fill-rule="evenodd" clip-rule="evenodd" d="M290.371 95.9652V83.8494L290.143 84.0853L290.371 95.9652Z" fill="#00FFFF" stroke="#00FFFF" stroke-width="0.319999" stroke-miterlimit="2"/>
<path fill-rule="evenodd" clip-rule="evenodd" d="M290.61 96.1921L290.371 83.8494V95.9652L290.61 96.1921Z" fill="#00FFFF" stroke="#00FFFF" stroke-width="0.319999" stroke-miterlimit="2"/>
<path fill-rule="evenodd" clip-rule="evenodd" d="M290.61 96.1921V83.6229L290.371 83.8494L290.61 96.1921Z" fill="#00FFFF" stroke="#00FFFF" stroke-width="0.319999" stroke-miterlimit="2"/>
<path fill-rule="evenodd" clip-rule="evenodd" d="M290.856 96.4094L290.61 83.6229V96.1921L290.856 96.4094Z" fill="#00FFFF" stroke="#00FFFF" stroke-width="0.319999" stroke-miterlimit="2"/>
<path fill-rule="evenodd" clip-rule="evenodd" d="M290.856 96.4094V83.4056L290.61 83.6229L290.856 96.4094Z" fill="#00FFFF" stroke="#00FFFF" stroke-width="0.319999" stroke-miterlimit="2"/>
<path fill-rule="evenodd" clip-rule="evenodd" d="M291.111 96.6171L290.856 83.4056V96.4094L291.111 96.6171Z" fill="#00FFFF" stroke="#00FFFF" stroke-width="0.319999" stroke-miterlimit="2"/>
<path fill-rule="evenodd" clip-rule="evenodd" d="M291.111 96.617V83.1979L290.856 83.4056L291.111 96.617Z" fill="#00FFFF" stroke="#00FFFF" stroke-width="0.319999" stroke-miterlimit="2"/>
<path fill-rule="evenodd" clip-rule="evenodd" d="M291.373 96.8148L291.111 83.1979V96.617L291.373 96.8148Z" fill="#00FFFF" stroke="#00FFFF" stroke-width="0.319999" stroke-miterlimit="2"/>
<path fill-rule="evenodd" clip-rule="evenodd" d="M291.373 96.8148V83.0001L291.111 83.1979L291.373 96.8148Z" fill="#00FFFF" stroke="#00FFFF" stroke-width="0.319999" stroke-miterlimit="2"/>
<path fill-rule="evenodd" clip-rule="evenodd" d="M291.643 97.0023L291.373 83.0001V96.8148L291.643 97.0023Z" fill="#00FFFF" stroke="#00FFFF" stroke-width="0.319999" stroke-miterlimit="2"/>
<path fill-rule="evenodd" clip-rule="evenodd" d="M291.643 97.0023V82.8126L291.373 83.0001L291.643 97.0023Z" fill="#00FFFF" stroke="#00FFFF" stroke-width="0.319999" stroke-miterlimit="2"/>
<path fill-rule="evenodd" clip-rule="evenodd" d="M291.92 97.1793L291.643 82.8126V97.0023L291.92 97.1793Z" fill="#00FFFF" stroke="#00FFFF" stroke-width="0.319999" stroke-miterlimit="2"/>
<path fill-rule="evenodd" clip-rule="evenodd" d="M291.92 97.1793V82.6357L291.643 82.8126L291.92 97.1793Z" fill="#00FFFF" stroke="#00FFFF" stroke-width="0.319999" stroke-miterlimit="2"/>
<path fill-rule="evenodd" clip-rule="evenodd" d="M292.203 97.3454L291.92 82.6357V97.1793L292.203 97.3454Z" fill="#00FFFF" stroke="#00FFFF" stroke-width="0.319999" stroke-miterlimit="2"/>
<path fill-rule="evenodd" clip-rule="evenodd" d="M292.203 97.3454V82.4696L291.92 82.6357L292.203 97.3454Z" fill="#00FFFF" stroke="#00FFFF" stroke-width="0.319999" stroke-miterlimit="2"/>
<path fill-rule="evenodd" clip-rule="evenodd" d="M292.493 97.5006L292.203 82.4696V97.3454L292.493 97.5006Z" fill="#00FFFF" stroke="#00FFFF" stroke-width="0.319999" stroke-miterlimit="2"/>
<path fill-rule="evenodd" clip-rule="evenodd" d="M292.493 97.5006V82.3144L292.203 82.4696L292.493 97.5006Z" fill="#00FFFF" stroke="#00FFFF" stroke-width="0.319999" stroke-miterlimit="2"/>
<path fill-rule="evenodd" clip-rule="evenodd" d="M292.789 97.6443L292.493 82.3144V97.5006L292.789 97.6443Z" fill="#00FFFF" stroke="#00FFFF" stroke-width="0.319999" stroke-miterlimit="2"/>
<path fill-rule="evenodd" clip-rule="evenodd" d="M292.789 97.6443V82.1704L292.493 82.3144L292.789 97.6443Z" fill="#00FFFF" stroke="#00FFFF" stroke-width="0.319999" stroke-miterlimit="2"/>
<path fill-rule="evenodd" clip-rule="evenodd" d="M293.09 97.7768L292.789 82.1704V97.6443L293.09 97.7768Z" fill="#00FFFF" stroke="#00FFFF" stroke-width="0.319999" stroke-miterlimit="2"/>
<path fill-rule="evenodd" clip-rule="evenodd" d="M293.09 97.7767V82.0382L292.789 82.1704L293.09 97.7767Z" fill="#00FFFF" stroke="#00FFFF" stroke-width="0.319999" stroke-miterlimit="2"/>
<path fill-rule="evenodd" clip-rule="evenodd" d="M293.395 97.8974L293.09 82.0382V97.7767L293.395 97.8974Z" fill="#00FFFF" stroke="#00FFFF" stroke-width="0.319999" stroke-miterlimit="2"/>
<path fill-rule="evenodd" clip-rule="evenodd" d="M293.395 97.8974V81.9176L293.09 82.0382L293.395 97.8974Z" fill="#00FFFF" stroke="#00FFFF" stroke-width="0.319999" stroke-miterlimit="2"/>
<path fill-rule="evenodd" clip-rule="evenodd" d="M293.706 98.0062L293.395 81.9176V97.8974L293.706 98.0062Z" fill="#00FFFF" stroke="#00FFFF" stroke-width="0.319999" stroke-miterlimit="2"/>
<path fill-rule="evenodd" clip-rule="evenodd" d="M293.706 98.0062V81.8088L293.395 81.9176L293.706 98.0062Z" fill="#00FFFF" stroke="#00FFFF" stroke-width="0.319999" stroke-miterlimit="2"/>
<path fill-rule="evenodd" clip-rule="evenodd" d="M294.019 98.1028L293.706 81.8088V98.0062L294.019 98.1028Z" fill="#00FFFF" stroke="#00FFFF" stroke-width="0.319999" stroke-miterlimit="2"/>
<path fill-rule="evenodd" clip-rule="evenodd" d="M294.019 98.1028V81.7121L293.706 81.8088L294.019 98.1028Z" fill="#00FFFF" stroke="#00FFFF" stroke-width="0.319999" stroke-miterlimit="2"/>
<path fill-rule="evenodd" clip-rule="evenodd" d="M294.337 98.1873L294.019 81.7121V98.1028L294.337 98.1873Z" fill="#00FFFF" stroke="#00FFFF" stroke-width="0.319999" stroke-miterlimit="2"/>
<path fill-rule="evenodd" clip-rule="evenodd" d="M294.337 98.1873V81.6277L294.019 81.7121L294.337 98.1873Z" fill="#00FFFF" stroke="#00FFFF" stroke-width="0.319999" stroke-miterlimit="2"/>
<path fill-rule="evenodd" clip-rule="evenodd" d="M294.658 98.2596L294.337 81.6277V98.1873L294.658 98.2596Z" fill="#00FFFF" stroke="#00FFFF" stroke-width="0.319999" stroke-miterlimit="2"/>
<path fill-rule="evenodd" clip-rule="evenodd" d="M294.658 98.2596V81.5553L294.337 81.6277L294.658 98.2596Z" fill="#00FFFF"/>
<path fill-rule="evenodd" clip-rule="evenodd" d="M294.981 98.3195L294.658 81.5553V98.2596L294.981 98.3195Z" fill="#00FFFF"/>
<path fill-rule="evenodd" clip-rule="evenodd" d="M294.981 98.3194V81.4955L294.658 81.5553L294.981 98.3194Z" fill="#00FFFF"/>
<path fill-rule="evenodd" clip-rule="evenodd" d="M295.306 98.3668L294.981 81.4955V98.3194L295.306 98.3668Z" fill="#00FFFF"/>
<path fill-rule="evenodd" clip-rule="evenodd" d="M295.306 98.3668V81.4481L294.981 81.4955L295.306 98.3668Z" fill="#00FFFF"/>
<path fill-rule="evenodd" clip-rule="evenodd" d="M295.633 98.4014L295.306 81.4481V98.3668L295.633 98.4014Z" fill="#00FFFF"/>
<path fill-rule="evenodd" clip-rule="evenodd" d="M295.633 98.4014V81.4133L295.306 81.4481L295.633 98.4014Z" fill="#00FFFF"/>
<path fill-rule="evenodd" clip-rule="evenodd" d="M295.961 98.4238L295.633 81.4133V98.4014L295.961 98.4238Z" fill="#00FFFF"/>
<path fill-rule="evenodd" clip-rule="evenodd" d="M295.961 98.4238V81.3912L295.633 81.4133L295.961 98.4238Z" fill="#00FFFF"/>
<path fill-rule="evenodd" clip-rule="evenodd" d="M296.289 98.4331L295.961 81.3912V98.4238L296.289 98.4331Z" fill="#00FFFF"/>
<path fill-rule="evenodd" clip-rule="evenodd" d="M296.289 98.4331V81.3816L295.961 81.3912L296.289 98.4331Z" fill="#00FFFF"/>
<path fill-rule="evenodd" clip-rule="evenodd" d="M296.289 81.3816V98.4331L296.618 98.4299L296.289 81.3816Z" fill="#00FFFF"/>
<path fill-rule="evenodd" clip-rule="evenodd" d="M296.289 81.3816L296.618 98.4299V81.3848L296.289 81.3816Z" fill="#00FFFF"/>
<path fill-rule="evenodd" clip-rule="evenodd" d="M296.618 81.3848V98.4298L296.946 98.4142L296.618 81.3848Z" fill="#00FFFF"/>
<path fill-rule="evenodd" clip-rule="evenodd" d="M296.618 81.3848L296.946 98.4142V81.4008L296.618 81.3848Z" fill="#00FFFF"/>
<path fill-rule="evenodd" clip-rule="evenodd" d="M296.946 81.4008V98.4142L297.274 98.3857L296.946 81.4008Z" fill="#00FFFF"/>
<path fill-rule="evenodd" clip-rule="evenodd" d="M296.946 81.4008L297.274 98.3857V81.4293L296.946 81.4008Z" fill="#00FFFF"/>
<path fill-rule="evenodd" clip-rule="evenodd" d="M297.274 81.4293V98.3857L297.6 98.3447L297.274 81.4293Z" fill="#00FFFF"/>
<path fill-rule="evenodd" clip-rule="evenodd" d="M297.274 81.4293L297.6 98.3447V81.4702L297.274 81.4293Z" fill="#00FFFF"/>
<path fill-rule="evenodd" clip-rule="evenodd" d="M297.6 81.4702V98.3447L297.924 98.291L297.6 81.4702Z" fill="#00FFFF"/>
<path fill-rule="evenodd" clip-rule="evenodd" d="M297.6 81.4702L297.924 98.291V81.524L297.6 81.4702Z" fill="#00FFFF"/>
<path fill-rule="evenodd" clip-rule="evenodd" d="M297.924 81.524V98.291L298.246 98.2251L297.924 81.524Z" fill="#00FFFF"/>
<path fill-rule="evenodd" clip-rule="evenodd" d="M297.924 81.524L298.246 98.2251V81.5899L297.924 81.524Z" fill="#00FFFF"/>
<path fill-rule="evenodd" clip-rule="evenodd" d="M298.246 81.5899V98.2251L298.565 98.1467L298.246 81.5899Z" fill="#00FFFF" stroke="#00FFFF" stroke-width="0.319999" stroke-miterlimit="2"/>
<path fill-rule="evenodd" clip-rule="evenodd" d="M298.246 81.5899L298.565 98.1467V81.6683L298.246 81.5899Z" fill="#00FFFF" stroke="#00FFFF" stroke-width="0.319999" stroke-miterlimit="2"/>
<path fill-rule="evenodd" clip-rule="evenodd" d="M298.565 81.6683V98.1467L298.881 98.0558L298.565 81.6683Z" fill="#00FFFF" stroke="#00FFFF" stroke-width="0.319999" stroke-miterlimit="2"/>
<path fill-rule="evenodd" clip-rule="evenodd" d="M298.565 81.6683L298.881 98.0558V81.7589L298.565 81.6683Z" fill="#00FFFF" stroke="#00FFFF" stroke-width="0.319999" stroke-miterlimit="2"/>
<path fill-rule="evenodd" clip-rule="evenodd" d="M298.881 81.7589V98.0558L299.193 97.9531L298.881 81.7589Z" fill="#00FFFF" stroke="#00FFFF" stroke-width="0.319999" stroke-miterlimit="2"/>
<path fill-rule="evenodd" clip-rule="evenodd" d="M298.881 81.7589L299.193 97.9531V81.8616L298.881 81.7589Z" fill="#00FFFF" stroke="#00FFFF" stroke-width="0.319999" stroke-miterlimit="2"/>
<path fill-rule="evenodd" clip-rule="evenodd" d="M299.193 81.8616V97.9531L299.501 97.8385L299.193 81.8616Z" fill="#00FFFF" stroke="#00FFFF" stroke-width="0.319999" stroke-miterlimit="2"/>
<path fill-rule="evenodd" clip-rule="evenodd" d="M299.193 81.8616L299.501 97.8385V81.9765L299.193 81.8616Z" fill="#00FFFF" stroke="#00FFFF" stroke-width="0.319999" stroke-miterlimit="2"/>
<path fill-rule="evenodd" clip-rule="evenodd" d="M299.501 81.9764V97.8385L299.804 97.7121L299.501 81.9764Z" fill="#00FFFF" stroke="#00FFFF" stroke-width="0.319999" stroke-miterlimit="2"/>
<path fill-rule="evenodd" clip-rule="evenodd" d="M299.501 81.9764L299.804 97.7121V82.1028L299.501 81.9764Z" fill="#00FFFF" stroke="#00FFFF" stroke-width="0.319999" stroke-miterlimit="2"/>
<path fill-rule="evenodd" clip-rule="evenodd" d="M299.804 82.1028V97.7121L300.102 97.5739L299.804 82.1028Z" fill="#00FFFF" stroke="#00FFFF" stroke-width="0.319999" stroke-miterlimit="2"/>
<path fill-rule="evenodd" clip-rule="evenodd" d="M299.804 82.1028L300.102 97.5739V82.2411L299.804 82.1028Z" fill="#00FFFF" stroke="#00FFFF" stroke-width="0.319999" stroke-miterlimit="2"/>
<path fill-rule="evenodd" clip-rule="evenodd" d="M300.102 82.2411V97.5739L300.395 97.4244L300.102 82.2411Z" fill="#00FFFF" stroke="#00FFFF" stroke-width="0.319999" stroke-miterlimit="2"/>
<path fill-rule="evenodd" clip-rule="evenodd" d="M300.102 82.2411L300.395 97.4244V82.3905L300.102 82.2411Z" fill="#00FFFF" stroke="#00FFFF" stroke-width="0.319999" stroke-miterlimit="2"/>
<path fill-rule="evenodd" clip-rule="evenodd" d="M300.395 82.3905V97.4244L300.682 97.2638L300.395 82.3905Z" fill="#00FFFF" stroke="#00FFFF" stroke-width="0.319999" stroke-miterlimit="2"/>
<path fill-rule="evenodd" clip-rule="evenodd" d="M300.395 82.3905L300.682 97.2638V82.5512L300.395 82.3905Z" fill="#00FFFF" stroke="#00FFFF" stroke-width="0.319999" stroke-miterlimit="2"/>
<path fill-rule="evenodd" clip-rule="evenodd" d="M300.682 82.5512V97.2638L300.962 97.0923L300.682 82.5512Z" fill="#00FFFF" stroke="#00FFFF" stroke-width="0.319999" stroke-miterlimit="2"/>
<path fill-rule="evenodd" clip-rule="evenodd" d="M300.682 82.5512L300.962 97.0923V82.7227L300.682 82.5512Z" fill="#00FFFF" stroke="#00FFFF" stroke-width="0.319999" stroke-miterlimit="2"/>
<path fill-rule="evenodd" clip-rule="evenodd" d="M300.962 82.7227V97.0923L301.235 96.9099L300.962 82.7227Z" fill="#00FFFF" stroke="#00FFFF" stroke-width="0.319999" stroke-miterlimit="2"/>
<path fill-rule="evenodd" clip-rule="evenodd" d="M300.962 82.7227L301.235 96.9099V82.9051L300.962 82.7227Z" fill="#00FFFF" stroke="#00FFFF" stroke-width="0.319999" stroke-miterlimit="2"/>
<path fill-rule="evenodd" clip-rule="evenodd" d="M301.235 82.9051V96.9099L301.502 96.7172L301.235 82.9051Z" fill="#00FFFF" stroke="#00FFFF" stroke-width="0.319999" stroke-miterlimit="2"/>
<path fill-rule="evenodd" clip-rule="evenodd" d="M301.235 82.9051L301.502 96.7172V83.0977L301.235 82.9051Z" fill="#00FFFF" stroke="#00FFFF" stroke-width="0.319999" stroke-miterlimit="2"/>
<path fill-rule="evenodd" clip-rule="evenodd" d="M301.502 83.0977V96.7172L301.761 96.5143L301.502 83.0977Z" fill="#00FFFF" stroke="#00FFFF" stroke-width="0.319999" stroke-miterlimit="2"/>
<path fill-rule="evenodd" clip-rule="evenodd" d="M301.502 83.0977L301.761 96.5143V83.3003L301.502 83.0977Z" fill="#00FFFF" stroke="#00FFFF" stroke-width="0.319999" stroke-miterlimit="2"/>
<path fill-rule="evenodd" clip-rule="evenodd" d="M301.761 83.3003V96.5143L302.011 96.3019L301.761 83.3003Z" fill="#00FFFF" stroke="#00FFFF" stroke-width="0.319999" stroke-miterlimit="2"/>
<path fill-rule="evenodd" clip-rule="evenodd" d="M301.761 83.3003L302.011 96.3019V83.5131L301.761 83.3003Z" fill="#00FFFF" stroke="#00FFFF" stroke-width="0.319999" stroke-miterlimit="2"/>
<path fill-rule="evenodd" clip-rule="evenodd" d="M302.011 83.5131V96.3019L302.253 96.0798L302.011 83.5131Z" fill="#00FFFF" stroke="#00FFFF" stroke-width="0.319999" stroke-miterlimit="2"/>
<path fill-rule="evenodd" clip-rule="evenodd" d="M302.011 83.5131L302.253 96.0798V83.7352L302.011 83.5131Z" fill="#00FFFF" stroke="#00FFFF" stroke-width="0.319999" stroke-miterlimit="2"/>
<path fill-rule="evenodd" clip-rule="evenodd" d="M302.253 83.7352V96.0798L302.487 95.8484L302.253 83.7352Z" fill="#00FFFF" stroke="#00FFFF" stroke-width="0.319999" stroke-miterlimit="2"/>
<path fill-rule="evenodd" clip-rule="evenodd" d="M302.253 83.7352L302.487 95.8484V83.9662L302.253 83.7352Z" fill="#00FFFF" stroke="#00FFFF" stroke-width="0.319999" stroke-miterlimit="2"/>
<path fill-rule="evenodd" clip-rule="evenodd" d="M302.487 83.9662V95.8484L302.711 95.6084L302.487 83.9662Z" fill="#00FFFF" stroke="#00FFFF" stroke-width="0.319999" stroke-miterlimit="2"/>
<path fill-rule="evenodd" clip-rule="evenodd" d="M302.487 83.9662L302.711 95.6084V84.2065L302.487 83.9662Z" fill="#00FFFF" stroke="#00FFFF" stroke-width="0.319999" stroke-miterlimit="2"/>
<path fill-rule="evenodd" clip-rule="evenodd" d="M302.711 84.2065V95.6084L302.926 95.3598L302.711 84.2065Z" fill="#00FFFF" stroke="#00FFFF" stroke-width="0.319999" stroke-miterlimit="2"/>
<path fill-rule="evenodd" clip-rule="evenodd" d="M302.711 84.2065L302.926 95.3598V84.4549L302.711 84.2065Z" fill="#00FFFF" stroke="#00FFFF" stroke-width="0.319999" stroke-miterlimit="2"/>
<path fill-rule="evenodd" clip-rule="evenodd" d="M302.926 84.4548V95.3598L303.131 95.1031L302.926 84.4548Z" fill="#00FFFF" stroke="#00FFFF" stroke-width="0.319999" stroke-miterlimit="2"/>
<path fill-rule="evenodd" clip-rule="evenodd" d="M302.926 84.4548L303.131 95.1031V84.7115L302.926 84.4548Z" fill="#00FFFF" stroke="#00FFFF" stroke-width="0.319999" stroke-miterlimit="2"/>
<path fill-rule="evenodd" clip-rule="evenodd" d="M303.131 84.7115V95.1031L303.327 94.8388L303.131 84.7115Z" fill="#00FFFF" stroke="#00FFFF" stroke-width="0.319999" stroke-miterlimit="2"/>
<path fill-rule="evenodd" clip-rule="evenodd" d="M303.131 84.7115L303.327 94.8388V84.9761L303.131 84.7115Z" fill="#00FFFF" stroke="#00FFFF" stroke-width="0.319999" stroke-miterlimit="2"/>
<path fill-rule="evenodd" clip-rule="evenodd" d="M303.327 84.9761V94.8388L303.512 94.5672L303.327 84.9761Z" fill="#00FFFF" stroke="#00FFFF" stroke-width="0.319999" stroke-miterlimit="2"/>
<path fill-rule="evenodd" clip-rule="evenodd" d="M303.327 84.9761L303.512 94.5672V85.2478L303.327 84.9761Z" fill="#00FFFF" stroke="#00FFFF" stroke-width="0.319999" stroke-miterlimit="2"/>
<path fill-rule="evenodd" clip-rule="evenodd" d="M303.512 85.2478V94.5671L303.686 94.2884L303.512 85.2478Z" fill="#00FFFF" stroke="#00FFFF" stroke-width="0.319999" stroke-miterlimit="2"/>
<path fill-rule="evenodd" clip-rule="evenodd" d="M303.512 85.2478L303.686 94.2884V85.5262L303.512 85.2478Z" fill="#00FFFF" stroke="#00FFFF" stroke-width="0.319999" stroke-miterlimit="2"/>
<path fill-rule="evenodd" clip-rule="evenodd" d="M303.686 85.5262V94.2884L303.849 94.0033L303.686 85.5262Z" fill="#00FFFF" stroke="#00FFFF" stroke-width="0.319999" stroke-miterlimit="2"/>
<path fill-rule="evenodd" clip-rule="evenodd" d="M303.686 85.5262L303.849 94.0033V85.8113L303.686 85.5262Z" fill="#00FFFF" stroke="#00FFFF" stroke-width="0.319999" stroke-miterlimit="2"/>
<path fill-rule="evenodd" clip-rule="evenodd" d="M303.849 85.8113V94.0033L304.002 93.7121L303.849 85.8113Z" fill="#00FFFF" stroke="#00FFFF" stroke-width="0.319999" stroke-miterlimit="2"/>
<path fill-rule="evenodd" clip-rule="evenodd" d="M303.849 85.8113L304.002 93.7121V86.1025L303.849 85.8113Z" fill="#00FFFF" stroke="#00FFFF" stroke-width="0.319999" stroke-miterlimit="2"/>
<path fill-rule="evenodd" clip-rule="evenodd" d="M304.001 86.1025V93.7121L304.142 93.4152L304.001 86.1025Z" fill="#00FFFF" stroke="#00FFFF" stroke-width="0.319999" stroke-miterlimit="2"/>
<path fill-rule="evenodd" clip-rule="evenodd" d="M304.001 86.1025L304.142 93.4152V86.3995L304.001 86.1025Z" fill="#00FFFF" stroke="#00FFFF" stroke-width="0.319999" stroke-miterlimit="2"/>
<path fill-rule="evenodd" clip-rule="evenodd" d="M304.142 86.3995V93.4151L304.272 93.1131L304.142 86.3995Z" fill="#00FFFF" stroke="#00FFFF" stroke-width="0.319999" stroke-miterlimit="2"/>
<path fill-rule="evenodd" clip-rule="evenodd" d="M304.142 86.3995L304.272 93.1131V86.7016L304.142 86.3995Z" fill="#00FFFF" stroke="#00FFFF" stroke-width="0.319999" stroke-miterlimit="2"/>
<path fill-rule="evenodd" clip-rule="evenodd" d="M304.272 86.7016V93.1131L304.39 92.8065L304.272 86.7016Z" fill="#00FFFF" stroke="#00FFFF" stroke-width="0.319999" stroke-miterlimit="2"/>
<path fill-rule="evenodd" clip-rule="evenodd" d="M304.272 86.7016L304.39 92.8065V87.0085L304.272 86.7016Z" fill="#00FFFF" stroke="#00FFFF" stroke-width="0.319999" stroke-miterlimit="2"/>
<path fill-rule="evenodd" clip-rule="evenodd" d="M304.39 87.0085V92.8065L304.495 92.4952L304.39 87.0085Z" fill="#00FFFF" stroke="#00FFFF" stroke-width="0.319999" stroke-miterlimit="2"/>
<path fill-rule="evenodd" clip-rule="evenodd" d="M304.39 87.0085L304.495 92.4952V87.3195L304.39 87.0085Z" fill="#00FFFF" stroke="#00FFFF" stroke-width="0.319999" stroke-miterlimit="2"/>
<path fill-rule="evenodd" clip-rule="evenodd" d="M304.495 87.3195V92.4952L304.589 92.1803L304.495 87.3195Z" fill="#00FFFF" stroke="#00FFFF" stroke-width="0.319999" stroke-miterlimit="2"/>
<path fill-rule="evenodd" clip-rule="evenodd" d="M304.495 87.3195L304.589 92.1803V87.6347L304.495 87.3195Z" fill="#00FFFF" stroke="#00FFFF" stroke-width="0.319999" stroke-miterlimit="2"/>
<path fill-rule="evenodd" clip-rule="evenodd" d="M304.589 87.6347V92.1803L304.671 91.8619L304.589 87.6347Z" fill="#00FFFF" stroke="#00FFFF" stroke-width="0.319999" stroke-miterlimit="2"/>
<path fill-rule="evenodd" clip-rule="evenodd" d="M304.589 87.6347L304.671 91.8619V87.9531L304.589 87.6347Z" fill="#00FFFF" stroke="#00FFFF" stroke-width="0.319999" stroke-miterlimit="2"/>
<path fill-rule="evenodd" clip-rule="evenodd" d="M304.671 87.9531V91.8619L304.74 91.5406L304.671 87.9531Z" fill="#00FFFF" stroke="#00FFFF" stroke-width="0.319999" stroke-miterlimit="2"/>
<path fill-rule="evenodd" clip-rule="evenodd" d="M304.671 87.9531L304.74 91.5406V88.2743L304.671 87.9531Z" fill="#00FFFF" stroke="#00FFFF" stroke-width="0.319999" stroke-miterlimit="2"/>
<path fill-rule="evenodd" clip-rule="evenodd" d="M304.74 88.2744V91.5406L304.796 91.2167L304.74 88.2744Z" fill="#00FFFF" stroke="#00FFFF" stroke-width="0.319999" stroke-miterlimit="2"/>
<path fill-rule="evenodd" clip-rule="evenodd" d="M304.74 88.2744L304.796 91.2167V88.5979L304.74 88.2744Z" fill="#00FFFF" stroke="#00FFFF" stroke-width="0.319999" stroke-miterlimit="2"/>
<path fill-rule="evenodd" clip-rule="evenodd" d="M304.796 88.5979V91.2168L304.841 90.8913L304.796 88.5979Z" fill="#00FFFF" stroke="#00FFFF" stroke-width="0.319999" stroke-miterlimit="2"/>
<path fill-rule="evenodd" clip-rule="evenodd" d="M304.796 88.5979L304.841 90.8913V88.9236L304.796 88.5979Z" fill="#00FFFF" stroke="#00FFFF" stroke-width="0.319999" stroke-miterlimit="2"/>
<path fill-rule="evenodd" clip-rule="evenodd" d="M304.841 88.9236V90.8913L304.872 90.564L304.841 88.9236Z" fill="#00FFFF" stroke="#00FFFF" stroke-width="0.319999" stroke-miterlimit="2"/>
<path fill-rule="evenodd" clip-rule="evenodd" d="M304.841 88.9236L304.872 90.564V89.2507L304.841 88.9236Z" fill="#00FFFF" stroke="#00FFFF" stroke-width="0.319999" stroke-miterlimit="2"/>
<path fill-rule="evenodd" clip-rule="evenodd" d="M304.872 89.2507V90.5639L304.891 90.236L304.872 89.2507Z" fill="#00FFFF" stroke="#00FFFF" stroke-width="0.319999" stroke-miterlimit="2"/>
<path fill-rule="evenodd" clip-rule="evenodd" d="M304.872 89.2507L304.891 90.236V89.579L304.872 89.2507Z" fill="#00FFFF" stroke="#00FFFF" stroke-width="0.319999" stroke-miterlimit="2"/>
<path fill-rule="evenodd" clip-rule="evenodd" d="M304.891 89.579V90.2359L304.898 89.9073L304.891 89.579Z" fill="#00FFFF" stroke="#00FFFF" stroke-width="0.319999" stroke-miterlimit="2"/>
<path d="M238.399 394.364L251.005 404.943" stroke="black" stroke-width="1.92" stroke-linecap="square" stroke-linejoin="bevel"/>
<path d="M251.005 404.943L243.273 407.756" stroke="black" stroke-width="1.92" stroke-linecap="square" stroke-linejoin="bevel"/>
<path d="M238.399 394.364L235.541 410.572" stroke="black" stroke-width="1.92" stroke-linecap="square" stroke-linejoin="bevel"/>
<path d="M235.541 410.572L243.273 407.756" stroke="black" stroke-width="1.92" stroke-linecap="square" stroke-linejoin="bevel"/>
<path fill-rule="evenodd" clip-rule="evenodd" d="M254.024 428.997H255.712L256.511 428.553L257.31 427.756L257.755 426.956L258.11 425.711V423.759L257.755 422.514L257.31 421.714L256.511 420.917L255.712 420.473H254.024L253.225 420.917L252.426 421.714L252.07 422.514L251.626 423.759V425.711L252.07 426.956L252.426 427.756L253.225 428.553L254.024 428.997Z" stroke="black" stroke-width="1.92" stroke-linecap="round" stroke-linejoin="bevel"/>
<path d="M253.58 424.556H256.067" stroke="black" stroke-width="1.92" stroke-linecap="round" stroke-linejoin="bevel"/>
<path d="M259.315 423.314V428.997" stroke="black" stroke-width="1.92" stroke-linecap="round" stroke-linejoin="bevel"/>
<path d="M259.315 424.911L260.558 423.759L261.358 423.314H262.601L263.401 423.759L263.756 424.911V428.997" stroke="black" stroke-width="1.92" stroke-linecap="round" stroke-linejoin="bevel"/>
<path d="M263.756 424.911L264.999 423.759L265.798 423.314H267.042L267.841 423.759L268.285 424.911V428.997" stroke="black" stroke-width="1.92" stroke-linecap="round" stroke-linejoin="bevel"/>
<path fill-rule="evenodd" clip-rule="evenodd" d="M325.596 125.424H327.283L328.083 124.98L328.883 124.18L329.328 123.381L329.683 122.138V120.184L329.328 118.94L328.883 118.141L328.083 117.341L327.283 116.897H325.596L324.796 117.341L324 118.141L323.644 118.94L323.2 120.184V122.138L323.644 123.381L324 124.18L324.796 124.98L325.596 125.424Z" stroke="black" stroke-width="1.92" stroke-linecap="round" stroke-linejoin="bevel"/>
<path d="M325.152 120.983H327.638" stroke="black" stroke-width="1.92" stroke-linecap="round" stroke-linejoin="bevel"/>
<path d="M335.772 120.983L334.972 120.184L334.172 119.74H332.931L332.131 120.184L331.331 120.983L330.889 122.138V123.026L331.331 124.18L332.131 124.98L332.931 125.424H334.172L334.972 124.98L335.772 124.18" stroke="black" stroke-width="1.92" stroke-linecap="round" stroke-linejoin="bevel"/>
<path d="M335.772 119.74V125.424" stroke="black" stroke-width="1.92" stroke-linecap="round" stroke-linejoin="bevel"/>
<path d="M338.601 119.74V125.424" stroke="black" stroke-width="1.92" stroke-linecap="round" stroke-linejoin="bevel"/>
<path d="M338.601 122.138L339.046 120.983L339.846 120.184L340.646 119.74H341.888" stroke="black" stroke-width="1.92" stroke-linecap="round" stroke-linejoin="bevel"/>
<path d="M345.123 116.897V123.825L345.478 124.98L346.278 125.424H347.164" stroke="black" stroke-width="1.92" stroke-linecap="round" stroke-linejoin="bevel"/>
<path d="M343.881 119.74H346.723" stroke="black" stroke-width="1.92" stroke-linecap="round" stroke-linejoin="bevel"/>
<path d="M296.371 59.7519V51.2258" stroke="black" stroke-width="1.92" stroke-linecap="square" stroke-linejoin="bevel"/>
<path d="M705.624 59.7519V51.2258" stroke="black" stroke-width="1.92" stroke-linecap="square" stroke-linejoin="bevel"/>
<path d="M304.898 55.4888H697.099" stroke="black" stroke-width="1.92" stroke-linecap="square" stroke-linejoin="bevel"/>
<path fill-rule="evenodd" clip-rule="evenodd" d="M304.898 54.0677L296.371 55.4888L304.898 56.9099V54.0677Z" fill="black"/>
<path fill-rule="evenodd" clip-rule="evenodd" d="M705.624 55.4888L697.099 54.0677V56.9099L705.624 55.4888Z" fill="black"/>
<path d="M486.79 46.43L487.586 46.0745L488.831 44.8313V53.3573" stroke="black" stroke-width="1.92" stroke-linecap="round" stroke-linejoin="bevel"/>
<path d="M493.727 46.8738V46.43L494.082 45.6306L494.527 45.2751L495.327 44.8313H496.927L497.724 45.2751L498.169 45.6306L498.524 46.43V47.229L498.169 48.1173L497.369 49.2719L493.286 53.3573H498.969" stroke="black" stroke-width="1.92" stroke-linecap="round" stroke-linejoin="bevel"/>
<path fill-rule="evenodd" clip-rule="evenodd" d="M503.804 53.3573H504.69L505.846 52.9132L506.646 51.7586L507.087 49.7161V48.4725L506.646 46.43L505.846 45.2751L504.69 44.8313H503.804L502.649 45.2751L501.849 46.43L501.404 48.4725V49.7161L501.849 51.7586L502.649 52.9132L503.804 53.3573Z" stroke="black" stroke-width="1.92" stroke-linecap="round" stroke-linejoin="bevel"/>
<path fill-rule="evenodd" clip-rule="evenodd" d="M511.922 53.3573H512.812L513.964 52.9132L514.764 51.7586L515.209 49.7161V48.4725L514.764 46.43L513.964 45.2751L512.812 44.8313H511.922L510.767 45.2751L509.97 46.43L509.526 48.4725V49.7161L509.97 51.7586L510.767 52.9132L511.922 53.3573Z" stroke="black" stroke-width="1.92" stroke-linecap="round" stroke-linejoin="bevel"/>
<path fill-rule="evenodd" clip-rule="evenodd" d="M3.0235 556.306V3.05371H790.575V556.306H3.0235Z" stroke="black" stroke-width="0.319999" stroke-linecap="square" stroke-linejoin="bevel"/>
</g>
<rect x="151" y="245" width="50" height="35" fill="white"/>
<rect x="314" y="106" width="50" height="35" fill="white"/>
<rect x="250" y="416" width="27" height="35" fill="white"/>
<rect x="217" y="35" width="67" height="35" fill="white"/>
<path d="M149.801 237.364C149.741 236.86 149.5 236.469 149.075 236.19C148.651 235.912 148.131 235.773 147.514 235.773C147.063 235.773 146.669 235.846 146.331 235.991C145.996 236.137 145.734 236.338 145.545 236.593C145.36 236.848 145.267 237.138 145.267 237.463C145.267 237.735 145.332 237.969 145.461 238.164C145.594 238.356 145.763 238.517 145.968 238.646C146.174 238.772 146.389 238.877 146.614 238.96C146.84 239.039 147.047 239.104 147.236 239.153L148.27 239.432C148.535 239.501 148.83 239.598 149.155 239.72C149.483 239.843 149.796 240.01 150.094 240.222C150.396 240.431 150.645 240.7 150.84 241.028C151.036 241.356 151.134 241.759 151.134 242.236C151.134 242.786 150.989 243.283 150.701 243.727C150.416 244.171 149.998 244.524 149.448 244.786C148.901 245.048 148.237 245.179 147.455 245.179C146.725 245.179 146.094 245.061 145.56 244.826C145.03 244.591 144.612 244.263 144.308 243.842C144.006 243.421 143.835 242.932 143.795 242.375H145.068C145.101 242.759 145.231 243.078 145.456 243.33C145.685 243.578 145.973 243.764 146.321 243.886C146.672 244.006 147.05 244.065 147.455 244.065C147.925 244.065 148.348 243.989 148.722 243.837C149.097 243.681 149.393 243.465 149.612 243.19C149.831 242.912 149.94 242.587 149.94 242.216C149.94 241.878 149.846 241.603 149.657 241.391C149.468 241.179 149.219 241.006 148.911 240.874C148.603 240.741 148.27 240.625 147.912 240.526L146.659 240.168C145.864 239.939 145.234 239.612 144.77 239.188C144.306 238.764 144.074 238.209 144.074 237.523C144.074 236.953 144.228 236.455 144.536 236.031C144.848 235.604 145.265 235.272 145.789 235.037C146.316 234.798 146.904 234.679 147.554 234.679C148.21 234.679 148.794 234.797 149.304 235.032C149.814 235.264 150.219 235.582 150.517 235.987C150.819 236.391 150.978 236.85 150.994 237.364H149.801ZM153.002 247.864V237.364H154.135V238.577H154.274C154.36 238.444 154.48 238.275 154.632 238.07C154.788 237.861 155.01 237.675 155.298 237.513C155.59 237.347 155.985 237.264 156.482 237.264C157.125 237.264 157.691 237.425 158.182 237.746C158.673 238.068 159.055 238.524 159.33 239.114C159.606 239.704 159.743 240.4 159.743 241.202C159.743 242.01 159.606 242.711 159.33 243.305C159.055 243.895 158.674 244.352 158.187 244.677C157.7 244.998 157.138 245.159 156.502 245.159C156.011 245.159 155.618 245.078 155.323 244.915C155.028 244.75 154.801 244.562 154.642 244.354C154.483 244.142 154.36 243.966 154.274 243.827H154.175V247.864H153.002ZM154.155 241.182C154.155 241.759 154.24 242.267 154.409 242.708C154.578 243.146 154.825 243.489 155.149 243.737C155.474 243.982 155.872 244.105 156.343 244.105C156.833 244.105 157.242 243.976 157.57 243.717C157.902 243.455 158.151 243.104 158.316 242.663C158.485 242.219 158.57 241.725 158.57 241.182C158.57 240.645 158.487 240.161 158.321 239.73C158.159 239.296 157.912 238.953 157.58 238.701C157.252 238.446 156.84 238.318 156.343 238.318C155.865 238.318 155.464 238.439 155.139 238.681C154.815 238.92 154.569 239.254 154.404 239.685C154.238 240.113 154.155 240.612 154.155 241.182ZM161.533 245V237.364H162.706V245H161.533ZM162.129 236.091C161.901 236.091 161.704 236.013 161.538 235.857C161.375 235.701 161.294 235.514 161.294 235.295C161.294 235.077 161.375 234.889 161.538 234.734C161.704 234.578 161.901 234.5 162.129 234.5C162.358 234.5 162.554 234.578 162.716 234.734C162.882 234.889 162.965 235.077 162.965 235.295C162.965 235.514 162.882 235.701 162.716 235.857C162.554 236.013 162.358 236.091 162.129 236.091ZM166.028 240.406V245H164.855V237.364H165.989V238.557H166.088C166.267 238.169 166.539 237.857 166.903 237.622C167.268 237.384 167.739 237.264 168.315 237.264C168.832 237.264 169.285 237.37 169.673 237.582C170.06 237.791 170.362 238.109 170.577 238.537C170.793 238.961 170.901 239.498 170.901 240.148V245H169.727V240.227C169.727 239.627 169.571 239.16 169.26 238.825C168.948 238.487 168.521 238.318 167.977 238.318C167.603 238.318 167.268 238.399 166.973 238.562C166.681 238.724 166.451 238.961 166.282 239.273C166.113 239.584 166.028 239.962 166.028 240.406ZM175.928 245.159C175.292 245.159 174.73 244.998 174.243 244.677C173.756 244.352 173.374 243.895 173.099 243.305C172.824 242.711 172.687 242.01 172.687 241.202C172.687 240.4 172.824 239.704 173.099 239.114C173.374 238.524 173.757 238.068 174.248 237.746C174.738 237.425 175.305 237.264 175.948 237.264C176.445 237.264 176.838 237.347 177.126 237.513C177.418 237.675 177.64 237.861 177.792 238.07C177.948 238.275 178.069 238.444 178.155 238.577H178.255V234.818H179.428V245H178.295V243.827H178.155C178.069 243.966 177.947 244.142 177.787 244.354C177.628 244.562 177.401 244.75 177.106 244.915C176.811 245.078 176.419 245.159 175.928 245.159ZM176.087 244.105C176.558 244.105 176.956 243.982 177.28 243.737C177.605 243.489 177.852 243.146 178.021 242.708C178.19 242.267 178.275 241.759 178.275 241.182C178.275 240.612 178.192 240.113 178.026 239.685C177.86 239.254 177.615 238.92 177.29 238.681C176.965 238.439 176.564 238.318 176.087 238.318C175.59 238.318 175.176 238.446 174.844 238.701C174.516 238.953 174.269 239.296 174.104 239.73C173.941 240.161 173.86 240.645 173.86 241.182C173.86 241.725 173.943 242.219 174.108 242.663C174.278 243.104 174.526 243.455 174.854 243.717C175.186 243.976 175.597 244.105 176.087 244.105ZM182.913 234.818V245H181.74V234.818H182.913ZM188.264 245.159C187.528 245.159 186.893 244.997 186.36 244.672C185.829 244.344 185.42 243.886 185.132 243.3C184.847 242.71 184.704 242.024 184.704 241.241C184.704 240.459 184.847 239.77 185.132 239.173C185.42 238.573 185.821 238.106 186.335 237.771C186.852 237.433 187.455 237.264 188.145 237.264C188.542 237.264 188.935 237.33 189.323 237.463C189.711 237.596 190.064 237.811 190.382 238.109C190.7 238.404 190.953 238.795 191.142 239.283C191.331 239.77 191.426 240.37 191.426 241.082V241.58H185.539V240.565H190.233C190.233 240.134 190.146 239.75 189.974 239.412C189.805 239.074 189.563 238.807 189.248 238.612C188.937 238.416 188.569 238.318 188.145 238.318C187.677 238.318 187.273 238.434 186.931 238.666C186.593 238.895 186.333 239.193 186.151 239.561C185.969 239.929 185.877 240.323 185.877 240.744V241.42C185.877 241.997 185.977 242.486 186.176 242.887C186.378 243.285 186.658 243.588 187.016 243.797C187.374 244.002 187.79 244.105 188.264 244.105C188.572 244.105 188.85 244.062 189.099 243.976C189.351 243.886 189.568 243.754 189.75 243.578C189.933 243.399 190.074 243.177 190.173 242.912L191.306 243.23C191.187 243.615 190.987 243.953 190.705 244.244C190.423 244.533 190.075 244.758 189.661 244.92C189.247 245.08 188.781 245.159 188.264 245.159Z" fill="black"/>
<path d="M209.233 54V43.8182H215.378V44.9119H210.466V48.3523H215.06V49.446H210.466V52.9062H215.457V54H209.233ZM218.316 46.3636L220.146 49.4858L221.975 46.3636H223.327L220.862 50.1818L223.327 54H221.975L220.146 51.0369L218.316 54H216.964L219.39 50.1818L216.964 46.3636H218.316ZM228.323 46.3636V47.358H224.365V46.3636H228.323ZM225.519 44.5341H226.692V51.8125C226.692 52.1439 226.74 52.3925 226.836 52.5582C226.936 52.7206 227.061 52.83 227.214 52.8864C227.37 52.9394 227.534 52.9659 227.706 52.9659C227.835 52.9659 227.941 52.9593 228.024 52.946C228.107 52.9295 228.173 52.9162 228.223 52.9062L228.462 53.9602C228.382 53.9901 228.271 54.0199 228.129 54.0497C227.986 54.0829 227.806 54.0994 227.587 54.0994C227.255 54.0994 226.931 54.0282 226.612 53.8857C226.298 53.7431 226.036 53.526 225.827 53.2344C225.621 52.9427 225.519 52.5748 225.519 52.1307V44.5341ZM233.207 54.1591C232.471 54.1591 231.837 53.9967 231.303 53.6719C230.773 53.3438 230.363 52.8864 230.075 52.2997C229.79 51.7098 229.648 51.0237 229.648 50.2415C229.648 49.4593 229.79 48.7699 230.075 48.1733C230.363 47.5734 230.765 47.1061 231.278 46.7713C231.795 46.4332 232.398 46.2642 233.088 46.2642C233.486 46.2642 233.878 46.3305 234.266 46.4631C234.654 46.5956 235.007 46.8111 235.325 47.1094C235.643 47.4044 235.897 47.7955 236.086 48.2827C236.275 48.7699 236.369 49.3698 236.369 50.0824V50.5795H230.483V49.5653H235.176C235.176 49.1345 235.09 48.75 234.917 48.4119C234.748 48.0739 234.506 47.8071 234.192 47.6115C233.88 47.416 233.512 47.3182 233.088 47.3182C232.621 47.3182 232.216 47.4342 231.875 47.6662C231.537 47.8949 231.277 48.1932 231.094 48.5611C230.912 48.929 230.821 49.3234 230.821 49.7443V50.4205C230.821 50.9972 230.92 51.486 231.119 51.8871C231.321 52.2848 231.601 52.5881 231.959 52.7969C232.317 53.0024 232.733 53.1051 233.207 53.1051C233.515 53.1051 233.794 53.062 234.042 52.9759C234.294 52.8864 234.511 52.7538 234.694 52.5781C234.876 52.3991 235.017 52.1771 235.116 51.9119L236.25 52.2301C236.131 52.6146 235.93 52.9527 235.648 53.2443C235.367 53.5327 235.019 53.758 234.604 53.9205C234.19 54.0795 233.724 54.1591 233.207 54.1591ZM239.327 49.4062V54H238.154V46.3636H239.287V47.5568H239.387C239.566 47.169 239.838 46.8575 240.202 46.6222C240.567 46.3835 241.037 46.2642 241.614 46.2642C242.131 46.2642 242.584 46.3703 242.971 46.5824C243.359 46.7912 243.661 47.1094 243.876 47.5369C244.092 47.9612 244.199 48.4981 244.199 49.1477V54H243.026V49.2273C243.026 48.6274 242.87 48.16 242.559 47.8253C242.247 47.4872 241.82 47.3182 241.276 47.3182C240.902 47.3182 240.567 47.3994 240.272 47.5618C239.98 47.7242 239.75 47.9612 239.581 48.2727C239.412 48.5843 239.327 48.9621 239.327 49.4062ZM249.227 54.1591C248.591 54.1591 248.029 53.9983 247.542 53.6768C247.054 53.352 246.673 52.8946 246.398 52.3047C246.123 51.7114 245.985 51.0104 245.985 50.2017C245.985 49.3996 246.123 48.7036 246.398 48.1136C246.673 47.5237 247.056 47.0679 247.547 46.7464C248.037 46.425 248.604 46.2642 249.247 46.2642C249.744 46.2642 250.137 46.3471 250.425 46.5128C250.717 46.6752 250.939 46.8608 251.091 47.0696C251.247 47.2751 251.368 47.4441 251.454 47.5767H251.554V43.8182H252.727V54H251.593V52.8267H251.454C251.368 52.9659 251.245 53.1416 251.086 53.3537C250.927 53.5625 250.7 53.7498 250.405 53.9155C250.11 54.0779 249.717 54.1591 249.227 54.1591ZM249.386 53.1051C249.857 53.1051 250.254 52.9825 250.579 52.7372C250.904 52.4886 251.151 52.1456 251.32 51.7081C251.489 51.2673 251.574 50.7585 251.574 50.1818C251.574 49.6117 251.491 49.1129 251.325 48.6854C251.159 48.2545 250.914 47.9197 250.589 47.6811C250.264 47.4392 249.863 47.3182 249.386 47.3182C248.889 47.3182 248.475 47.4458 248.143 47.701C247.815 47.9529 247.568 48.2959 247.402 48.7301C247.24 49.161 247.159 49.6449 247.159 50.1818C247.159 50.7254 247.242 51.2192 247.407 51.6634C247.576 52.1042 247.825 52.4555 248.153 52.7173C248.484 52.9759 248.895 53.1051 249.386 53.1051ZM257.286 54.179C256.802 54.179 256.363 54.0878 255.968 53.9055C255.574 53.7199 255.261 53.4531 255.029 53.1051C254.797 52.7538 254.681 52.3295 254.681 51.8324C254.681 51.3949 254.767 51.0402 254.939 50.7685C255.112 50.4934 255.342 50.2779 255.63 50.1222C255.919 49.9664 256.237 49.8504 256.585 49.7741C256.936 49.6946 257.289 49.6316 257.644 49.5852C258.108 49.5256 258.484 49.4808 258.772 49.451C259.064 49.4179 259.276 49.3632 259.409 49.2869C259.545 49.2107 259.613 49.0781 259.613 48.8892V48.8494C259.613 48.3589 259.478 47.9777 259.21 47.706C258.945 47.4342 258.542 47.2983 258.002 47.2983C257.442 47.2983 257.002 47.4209 256.684 47.6662C256.366 47.9115 256.142 48.1733 256.013 48.4517L254.9 48.054C255.098 47.59 255.364 47.2287 255.695 46.9702C256.03 46.7083 256.394 46.526 256.789 46.4233C257.186 46.3172 257.578 46.2642 257.962 46.2642C258.207 46.2642 258.489 46.294 258.807 46.3537C259.129 46.41 259.439 46.5277 259.737 46.7067C260.038 46.8857 260.289 47.1558 260.488 47.517C260.686 47.8783 260.786 48.3622 260.786 48.9688V54H259.613V52.9659H259.553C259.473 53.1316 259.341 53.3089 259.155 53.4979C258.97 53.6868 258.723 53.8475 258.414 53.9801C258.106 54.1127 257.73 54.179 257.286 54.179ZM257.465 53.125C257.929 53.125 258.32 53.0339 258.638 52.8516C258.96 52.6693 259.202 52.4339 259.364 52.1456C259.53 51.8572 259.613 51.554 259.613 51.2358V50.1619C259.563 50.2216 259.453 50.2763 259.284 50.326C259.119 50.3724 258.926 50.4138 258.708 50.4503C258.492 50.4834 258.282 50.5133 258.076 50.5398C257.874 50.563 257.71 50.5829 257.584 50.5994C257.279 50.6392 256.994 50.7038 256.729 50.7933C256.467 50.8795 256.255 51.0104 256.093 51.1861C255.934 51.3584 255.854 51.5937 255.854 51.892C255.854 52.2997 256.005 52.608 256.306 52.8168C256.611 53.0223 256.998 53.125 257.465 53.125ZM263.086 54V43.8182H264.26V47.5767H264.359C264.445 47.4441 264.565 47.2751 264.717 47.0696C264.873 46.8608 265.095 46.6752 265.383 46.5128C265.675 46.3471 266.069 46.2642 266.567 46.2642C267.21 46.2642 267.776 46.425 268.267 46.7464C268.757 47.0679 269.14 47.5237 269.415 48.1136C269.69 48.7036 269.828 49.3996 269.828 50.2017C269.828 51.0104 269.69 51.7114 269.415 52.3047C269.14 52.8946 268.759 53.352 268.272 53.6768C267.785 53.9983 267.223 54.1591 266.586 54.1591C266.096 54.1591 265.703 54.0779 265.408 53.9155C265.113 53.7498 264.886 53.5625 264.727 53.3537C264.568 53.1416 264.445 52.9659 264.359 52.8267H264.22V54H263.086ZM264.24 50.1818C264.24 50.7585 264.324 51.2673 264.493 51.7081C264.662 52.1456 264.909 52.4886 265.234 52.7372C265.559 52.9825 265.957 53.1051 266.427 53.1051C266.918 53.1051 267.327 52.9759 267.655 52.7173C267.987 52.4555 268.235 52.1042 268.401 51.6634C268.57 51.2192 268.655 50.7254 268.655 50.1818C268.655 49.6449 268.572 49.161 268.406 48.7301C268.244 48.2959 267.997 47.9529 267.665 47.701C267.337 47.4458 266.925 47.3182 266.427 47.3182C265.95 47.3182 265.549 47.4392 265.224 47.6811C264.899 47.9197 264.654 48.2545 264.488 48.6854C264.323 49.1129 264.24 49.6117 264.24 50.1818ZM272.796 43.8182V54H271.623V43.8182H272.796ZM278.147 54.1591C277.411 54.1591 276.776 53.9967 276.243 53.6719C275.712 53.3438 275.303 52.8864 275.015 52.2997C274.73 51.7098 274.587 51.0237 274.587 50.2415C274.587 49.4593 274.73 48.7699 275.015 48.1733C275.303 47.5734 275.704 47.1061 276.218 46.7713C276.735 46.4332 277.338 46.2642 278.027 46.2642C278.425 46.2642 278.818 46.3305 279.206 46.4631C279.593 46.5956 279.946 46.8111 280.265 47.1094C280.583 47.4044 280.836 47.7955 281.025 48.2827C281.214 48.7699 281.309 49.3698 281.309 50.0824V50.5795H275.422V49.5653H280.115C280.115 49.1345 280.029 48.75 279.857 48.4119C279.688 48.0739 279.446 47.8071 279.131 47.6115C278.819 47.416 278.452 47.3182 278.027 47.3182C277.56 47.3182 277.156 47.4342 276.814 47.6662C276.476 47.8949 276.216 48.1932 276.034 48.5611C275.851 48.929 275.76 49.3234 275.76 49.7443V50.4205C275.76 50.9972 275.86 51.486 276.059 51.8871C276.261 52.2848 276.541 52.5881 276.899 52.7969C277.257 53.0024 277.673 53.1051 278.147 53.1051C278.455 53.1051 278.733 53.062 278.982 52.9759C279.234 52.8864 279.451 52.7538 279.633 52.5781C279.815 52.3991 279.956 52.1771 280.056 51.9119L281.189 52.2301C281.07 52.6146 280.869 52.9527 280.588 53.2443C280.306 53.5327 279.958 53.758 279.544 53.9205C279.129 54.0795 278.664 54.1591 278.147 54.1591ZM209.651 71H208.358L212.097 60.8182H213.369L217.108 71H215.815L212.773 62.429H212.693L209.651 71ZM210.128 67.0227H215.338V68.1165H210.128V67.0227ZM218.535 71V63.3636H219.668V64.517H219.748C219.887 64.1392 220.139 63.8326 220.504 63.5973C220.868 63.362 221.279 63.2443 221.737 63.2443C221.823 63.2443 221.93 63.246 222.06 63.2493C222.189 63.2526 222.287 63.2576 222.353 63.2642V64.4574C222.313 64.4474 222.222 64.4325 222.08 64.4126C221.94 64.3894 221.793 64.3778 221.637 64.3778C221.266 64.3778 220.934 64.4557 220.643 64.6115C220.354 64.764 220.126 64.9761 219.957 65.2479C219.791 65.5163 219.708 65.8229 219.708 66.1676V71H218.535ZM223.744 71V63.3636H224.877V64.5568H224.977C225.136 64.1491 225.393 63.8326 225.747 63.6072C226.102 63.3786 226.528 63.2642 227.025 63.2642C227.529 63.2642 227.948 63.3786 228.283 63.6072C228.621 63.8326 228.884 64.1491 229.073 64.5568H229.153C229.348 64.1624 229.642 63.8492 230.033 63.6172C230.424 63.3819 230.893 63.2642 231.44 63.2642C232.123 63.2642 232.681 63.478 233.115 63.9055C233.549 64.3298 233.767 64.991 233.767 65.8892V71H232.593V65.8892C232.593 65.3258 232.439 64.9231 232.131 64.6811C231.823 64.4392 231.46 64.3182 231.042 64.3182C230.505 64.3182 230.089 64.4806 229.794 64.8054C229.499 65.1269 229.352 65.5346 229.352 66.0284V71H228.159V65.7699C228.159 65.3357 228.018 64.986 227.736 64.7209C227.454 64.4524 227.091 64.3182 226.647 64.3182C226.342 64.3182 226.057 64.3994 225.792 64.5618C225.53 64.7242 225.318 64.9496 225.156 65.2379C224.997 65.523 224.917 65.8527 224.917 66.2273V71H223.744Z" fill="black"/>
<path d="M257.114 425.705V426.955H251.568V425.705H257.114ZM257.932 425.568V426.955C257.932 428.144 257.784 429.123 257.489 429.892C257.193 430.661 256.777 431.231 256.239 431.602C255.701 431.973 255.068 432.159 254.341 432.159C253.614 432.159 252.977 431.973 252.432 431.602C251.886 431.231 251.462 430.661 251.159 429.892C250.856 429.123 250.705 428.144 250.705 426.955V425.568C250.705 424.386 250.854 423.419 251.153 422.665C251.453 421.911 251.873 421.354 252.415 420.994C252.956 420.634 253.591 420.455 254.318 420.455C255.053 420.455 255.691 420.634 256.233 420.994C256.775 421.354 257.193 421.911 257.489 422.665C257.784 423.419 257.932 424.386 257.932 425.568ZM256.568 427.205V425.318C256.568 424.538 256.473 423.875 256.284 423.33C256.095 422.784 255.831 422.369 255.494 422.085C255.157 421.801 254.765 421.659 254.318 421.659C253.659 421.659 253.116 421.977 252.688 422.614C252.259 423.246 252.045 424.148 252.045 425.318V427.205C252.045 428.375 252.263 429.294 252.699 429.96C253.134 430.623 253.682 430.955 254.341 430.955C254.788 430.955 255.178 430.805 255.511 430.506C255.845 430.206 256.104 429.777 256.29 429.216C256.475 428.655 256.568 427.985 256.568 427.205ZM259.484 432V426H260.375V426.937H260.453C260.578 426.617 260.78 426.368 261.059 426.191C261.337 426.012 261.672 425.922 262.063 425.922C262.458 425.922 262.788 426.012 263.051 426.191C263.316 426.368 263.523 426.617 263.672 426.937H263.734C263.888 426.628 264.118 426.382 264.426 426.199C264.733 426.014 265.102 425.922 265.531 425.922C266.068 425.922 266.507 426.09 266.848 426.426C267.189 426.759 267.359 427.279 267.359 427.984V432H266.437V427.984C266.437 427.542 266.316 427.225 266.074 427.035C265.832 426.845 265.547 426.75 265.219 426.75C264.797 426.75 264.47 426.878 264.238 427.133C264.007 427.385 263.891 427.706 263.891 428.094V432H262.953V427.891C262.953 427.549 262.842 427.275 262.621 427.066C262.4 426.855 262.115 426.75 261.766 426.75C261.526 426.75 261.302 426.814 261.094 426.941C260.888 427.069 260.721 427.246 260.594 427.473C260.469 427.697 260.406 427.956 260.406 428.25V432H259.484Z" fill="black"/>
<path d="M322.114 117.705V118.955H316.568V117.705H322.114ZM322.932 117.568V118.955C322.932 120.144 322.784 121.123 322.489 121.892C322.193 122.661 321.777 123.231 321.239 123.602C320.701 123.973 320.068 124.159 319.341 124.159C318.614 124.159 317.977 123.973 317.432 123.602C316.886 123.231 316.462 122.661 316.159 121.892C315.856 121.123 315.705 120.144 315.705 118.955V117.568C315.705 116.386 315.854 115.419 316.153 114.665C316.453 113.911 316.873 113.354 317.415 112.994C317.956 112.634 318.591 112.455 319.318 112.455C320.053 112.455 320.691 112.634 321.233 112.994C321.775 113.354 322.193 113.911 322.489 114.665C322.784 115.419 322.932 116.386 322.932 117.568ZM321.568 119.205V117.318C321.568 116.538 321.473 115.875 321.284 115.33C321.095 114.784 320.831 114.369 320.494 114.085C320.157 113.801 319.765 113.659 319.318 113.659C318.659 113.659 318.116 113.977 317.688 114.614C317.259 115.246 317.045 116.148 317.045 117.318V119.205C317.045 120.375 317.263 121.294 317.699 121.96C318.134 122.623 318.682 122.955 319.341 122.955C319.788 122.955 320.178 122.805 320.511 122.506C320.845 122.206 321.104 121.777 321.29 121.216C321.475 120.655 321.568 119.985 321.568 119.205ZM324.484 118H325.406V124.437C325.406 124.807 325.342 125.128 325.215 125.398C325.09 125.669 324.9 125.879 324.645 126.027C324.392 126.176 324.073 126.25 323.688 126.25C323.656 126.25 323.625 126.25 323.594 126.25C323.562 126.25 323.531 126.25 323.5 126.25V125.391C323.531 125.391 323.56 125.391 323.586 125.391C323.612 125.391 323.641 125.391 323.672 125.391C323.953 125.391 324.159 125.307 324.289 125.141C324.419 124.977 324.484 124.742 324.484 124.437V118ZM324.938 117C324.758 117 324.603 116.939 324.473 116.816C324.345 116.694 324.281 116.547 324.281 116.375C324.281 116.203 324.345 116.056 324.473 115.934C324.603 115.811 324.758 115.75 324.938 115.75C325.117 115.75 325.271 115.811 325.398 115.934C325.529 116.056 325.594 116.203 325.594 116.375C325.594 116.547 325.529 116.694 325.398 116.816C325.271 116.939 325.117 117 324.938 117Z" fill="black"/>
<defs>
<clipPath id="clip0_1_676">
<rect width="793.599" height="559.359" fill="white"/>
</clipPath>
</defs>
</svg>
